21

8 7
12
5 6
5 6
6 6
4 5
0 0
3 5
6 2
6 0
5 0
6 6
5 3
2 6
240 8

10 2
9
2 0
1 1
5 1
4 1
8 1
3 1
9 1
1 1
0 1
51 52

1 5
23
0 3
0 0
0 3
0 2
0 4
0 2
0 1
0 0
0 4
0 0
0 3
0 1
0 4
0 2
0 4
0 3
0 3
0 1
0 3
0 1
0 3
0 1
0 3
185 38

10 8
4
8 1
6 5
5 7
5 2
195 60

8 1
14
2 0
6 0
3 0
0 0
3 0
3 0
6 0
0 0
1 0
4 0
0 0
3 0
4 0
2 0
76 16

10 2
22
6 0
2 0
4 0
2 1
0 1
4 1
1 0
7 1
1 1
8 0
2 0
5 0
7 1
6 1
9 0
8 1
4 1
2 0
8 0
7 0
3 0
5 0
126 67

9 10
22
8 1
0 5
8 4
0 2
1 4
5 4
0 8
4 3
6 5
6 5
2 1
6 3
4 9
6 8
6 2
5 4
0 0
1 4
3 2
3 3
5 8
6 0
293 21

6 5
10
1 3
2 1
1 4
0 0
5 1
4 1
5 1
2 4
3 0
3 3
101 93

2 2
21
1 1
1 1
1 1
1 0
1 1
1 0
0 1
0 0
1 0
1 0
1 1
1 0
0 1
0 1
0 1
0 0
1 1
1 0
1 1
0 0
0 1
479 77

4 9
1
1 5
304 75

7 4
21
3 0
4 1
3 1
4 1
4 2
5 1
2 1
3 2
2 1
1 0
4 0
4 3
4 3
0 2
6 0
0 1
5 0
0 2
2 1
5 0
3 2
147 16

4 8
5
0 0
0 2
0 4
3 4
1 4
238 66

2 5
23
0 3
0 1
0 1
0 1
1 0
0 2
1 3
1 3
0 2
0 0
0 0
1 3
0 2
1 3
1 3
1 0
1 4
0 0
1 2
1 3
0 3
1 4
1 3
298 96

7 1
1
2 0
58 27

4 6
24
2 3
3 1
0 0
3 2
2 0
2 2
2 2
1 3
1 0
3 2
1 3
2 2
3 4
0 4
1 4
0 4
1 1
3 2
2 4
0 3
0 1
1 0
0 5
0 5
489 61

8 10
10
5 3
2 0
3 3
5 9
4 2
0 9
0 4
2 5
5 9
3 9
283 59

4 2
13
3 1
3 0
3 1
3 0
1 0
1 1
0 1
3 1
2 1
2 0
1 1
1 1
0 0
488 6

5 6
24
2 4
1 4
0 2
1 3
4 2
3 3
3 5
3 5
3 4
2 2
3 4
0 0
2 0
4 3
3 0
2 1
3 5
0 3
2 1
2 0
3 4
0 4
0 3
3 0
262 46

1 1
20
0 0
0 0
0 0
0 0
0 0
0 0
0 0
0 0
0 0
0 0
0 0
0 0
0 0
0 0
0 0
0 0
0 0
0 0
0 0
0 0
49 23

3 4
19
1 3
2 1
2 3
2 0
0 1
0 3
2 1
0 3
0 2
2 1
0 2
1 0
1 3
1 3
1 1
1 3
0 0
2 3
0 3
304 38

10 5
19
3 3
5 0
5 1
6 4
0 2
1 1
0 1
0 3
6 1
3 4
8 3
1 1
7 4
9 1
4 0
1 2
0 4
2 4
5 2
2 80
