*** Life<FredkinCell> 16x2 ***

Generation = 0, Population = 16.
0-
-0
-0
-0
0-
0-
00
--
0-
0-
-0
00
--
0-
0-
-0

Generation = 2, Population = 16.
-0
--
-0
0-
--
00
02
--
--
-0
12
20
01
--
2-
0-

Generation = 4, Population = 13.
-0
0-
--
-1
1-
-0
02
1-
--
1-
--
4-
0-
-1
-1
--

Generation = 6, Population = 21.
--
01
11
0-
-1
1-
-2
-0
10
1-
1-
-2
21
13
43
-1

Generation = 8, Population = 19.
11
-1
3-
22
21
-2
04
-0
--
1-
3-
--
2-
35
--
13

Generation = 10, Population = 16.
3-
1-
5-
42
2-
22
--
2-
-1
32
--
-3
--
--
4-
35

Generation = 12, Population = 14.
5-
-3
5-
6-
--
2-
16
2-
-3
--
-3
6-
3-
4-
6-
--

Generation = 14, Population = 12.
5-
23
--
-4
-2
4-
3-
--
13
--
4-
--
-3
--
--
4-

Generation = 16, Population = 14.
--
2-
71
--
24
63
--
3-
35
--
--
--
43
4-
-4
--

Generation = 18, Population = 14.
71
4-
--
-5
--
-3
--
-1
37
5-
--
8-
4-
6-
7-
4-

Generation = 20, Population = 16.
--
64
83
8-
--
-3
47
4-
37
-2
-3
+-
--
6-
--
6-

Generation = 22, Population = 14.
83
-4
+3
--
--
-5
--
4-
-7
-2
4-
-3
-4
6-
--
6-

Generation = 24, Population = 19.
+3
-4
--
--
25
75
-8
4-
39
6-
4-
+-
46
-6
-4
6-

Generation = 26, Population = 13.
--
-6
--
+-
2-
-7
-+
63
--
6-
4-
-4
--
-6
7-
-6

Generation = 28, Population = 15.
--
76
+-
+-
45
--
4+
--
4+
--
6-
+-
--
-6
7-
-6

Generation = 30, Population = 16.
+-
-8
-3
-5
4-
7-
6+
--
6-
7-
-5
+5
--
6-
7-
-6

Generation = 32, Population = 16.
-3
--
-3
+-
--
78
6+
--
--
-3
87
+5
47
--
9-
6-

Generation = 34, Population = 13.
-3
7-
--
-6
5-
-8
6+
8-
--
8-
--
+-
4-
-7
-6
--

*** Life<FredkinCell> 5x11 ***

Generation = 0, Population = 17.
-0--0--0--0
------0----
-----------
0--00----00
---000000-0

Generation = 2, Population = 32.
-011010011-
0--0----001
-0-1-01-0--
01---0-10-0
-01--00-212

Generation = 4, Population = 26.
02--0--03-0
--0---0---3
-2-3-03-0--
--01-003--2
0-31--2--12

Generation = 6, Population = 28.
----0-02512
1-00-020---
--05-0---10
2203--05-1-
0------033-

Generation = 8, Population = 22.
---2--0-51-
1-----4-1--
-2-7-25-1--
22---02-21-
---2--3-33-

Generation = 10, Population = 28.
----1-23534
-00-00---14
-4--02701-1
--2-1-----4
----2-50333

Generation = 12, Population = 22.
-42-3--3---
2-----5-2--
--2-24-0-2-
32---03-31-
-04-4--0---

Generation = 14, Population = 28.
16423-3----
-01-10---15
0-27447--4-
--3-2-----5
10624-6----

Generation = 16, Population = 22.
---2--3-55-
3-----6-3--
-6-7-69-3--
42---04-41-
---2--6-33-

Generation = 18, Population = 28.
----4-53575
-02-20---16
-8--46+03-1
--4-3-----6
----5-80334

Generation = 20, Population = 22.
-86-6--3---
4-----7-4--
--4-68-0-6-
52---05-51-
-08-7--0---

Generation = 22, Population = 28.
2+826-6----
-03-30---17
0-4788+--8-
--5-4-----7
20+27-9----

Generation = 24, Population = 22.
---2--6-59-
5-----8-5--
-+-7-++-5--
62---06-61-
---2--9-33-

*** Life<FredkinCell> 5x17 ***

Generation = 0, Population = 8.
-----------------
---00-----------0
---------0--0-0--
-------------0---
---------------0-

Generation = 2, Population = 27.
---------0--0-0--
-01--10------01-0
-------0--110-011
---00------0---10
---------0--0110-

Generation = 4, Population = 24.
---------0--0-21-
1--22--00---1-3-2
-----1--1-3--1-3-
---------1---1---
---------0-02-10-

Generation = 6, Population = 31.
-----0-100-1----0
12----------32---
---1--103-3-13-3-
0--11---0---0-020
-----0-01----2--1

Generation = 8, Population = 23.
---------2--1-23-
--3-3---0-103---3
-1--0-3-----3-15-
-----0-----------
-------2-2-13-2--

Generation = 10, Population = 53.
-0--1-02-201304-0
2-3-53--01--53--3
--032-314-4253372
--012--10-021---0
-0--011--20-52222

Generation = 12, Population = 36.
-0--3124120--2---
--5----20-317--0-
122--2-3---------
-0---0---3-------
-0-001321403-2-2-

Generation = 14, Population = 38.
1----12-3---42-5-
34--7-1-02--9-5--
--2544-5-1-4---8-
--0----10-1-2--4-
12-2--3-16-552---

Generation = 16, Population = 27.
---------2--4-65-
3-639-----41--513
3-2-665--3-----+-
-0---1-------2---
---2-----8--7-3--

Generation = 18, Population = 40.
3-1-5225--01-3--1
----9-3-03---55--
------7-6--5-5-+-
0-133--1--1---1-0
24121-32--17---32

Generation = 20, Population = 39.
3-105-4-4-23456--
5--4----0---+-71-
-3-6689-8345-7---
-1-----------2---
2-3-1-522-1-833--

Generation = 22, Population = 39.
5-3--------365-51
7-6--53-----+-7-5
-53668-6-34769-+-
1-------0--43-1--
2533---2----+--52

Generation = 24, Population = 37.
7052-3-6---5---7-
9-64---3--63--7--
5-566-+69-496+3+-
-----3---4---3---
2535-2-----8-----

Generation = 26, Population = 36.
--7--3486-3-866--
-68-+6--05------6
-6-----8---+--5-4
2-1----3--24--16-
--3---7-392-+-46-

Generation = 28, Population = 34.
7093---8633-+688-
----+--4-------38
---7---+-5--7-7+-
-3-------4-------
465-----592-+446-

Generation = 30, Population = 39.
9--56-58-35---881
-79--75------79-+
-8-7-----75+7+9-5
---53------4---61
68--1-7---4---484

Generation = 32, Population = 24.
---------5--+-88-
9--6+--40---+-+-+
-----9--+-5--+-+-
---------5---5---
---------+-8+-6+-

Generation = 34, Population = 31.
-----3-+65-7----1
98----------+8---
---9--+++-5-7+-+-
2--53---0---4-262
-----3-27----5--5

Generation = 36, Population = 23.
---------7--+-8+-
--+-+---0-74+---+
-+--7-+-----9-++-
-----4-----------
-------4-+-9+-7--

Generation = 38, Population = 53.
-0--8-5+-767+6+-1
+-+-+9--07--+9--+
--5+9-+++-6+++++5
--254--50-265---2
-9--248--+4-+57+6

*** Life<FredkinCell> 4x3 ***

Generation = 0, Population = 6.
00-
00-
---
-00

Generation = 1, Population = 7.
--0
--0
0-0
011

Generation = 2, Population = 6.
-01
00-
10-
---

Generation = 3, Population = 5.
--2
-1-
--0
01-

Generation = 4, Population = 6.
---
0-0
10-
12-

Generation = 5, Population = 6.
0-2
11-
2--
--1

Generation = 6, Population = 8.
10-
22-
3-0
12-

*** Life<FredkinCell> 20x12 ***

Generation = 0, Population = 16.
--0-0-------
------------
-------0----
------------
------------
------------
0-----------
----0-------
0-----------
0-----------
------------
------------
----0--0----
----0--0----
----0-------
---0--------
------------
----0-------
--------0---
-----------0

Generation = 2, Population = 51.
0-----00----
------------
--0-00---0--
------------
0------0----
----0-------
--0---------
0-0---0-----
--0---------
2-0-0-------
1---0--0----
0---1--1----
--0-211--0--
--01-11--0--
--0-2-01----
-0---0-0----
----1---0---
--01--0----0
------0---0-
----0----0--

Generation = 4, Population = 48.
------221---
------------
0-002------0
----1-------
0-0-1-------
1-----------
--2-1--0----
0-------0---
--0----0----
--2----1----
1---0-------
---11-------
---1----1--0
---30---1--0
0-----------
-------2---0
----1--0----
0---0--11--0
--------0---
---10--0-0--

Generation = 6, Population = 111.
0-00-1-2-100
----1-------
002--2-000-0
0-0---0-----
2--03-00---0
--0-0---0---
--2--110-0--
------01--0-
--2-00-2-0--
---1-0--10--
1-10--020--0
-0-111021--1
-0--321--212
-02322-2-21-
0-113--21--0
1--0-0-4---0
1-0--11-00--
0--321---11-
----0-11--0-
0013--101---

Generation = 8, Population = 44.
--2-1-----0-
0-----------
---------2--
------------
----3-------
----2--1----
--4---3-1---
--00--------
--2-2-1-1---
----2-0-1---
-------42---
-----------1
--1------2--
--4------2-2
2-1-----3---
---2-------2
1-----------
2-15--------
0---2---1---
---511-2----

Generation = 10, Population = 79.
1-----3-230-
0-1---------
--2----1--10
0---2--0----
--------00--
---1-10--0--
0-6-------0-
01--00020---
1-----333-0-
---34---1-00
----20--2-0-
--1-2-0-2---
--3-4------2
1--52--3-4--
2---3-0--00-
10-2-1------
3---2-------
-03----1---0
----------1-
20-7331--0--

Generation = 12, Population = 93.
----1---432-
2-3----1----
----321-1-32
--21--------
4-----1---1-
---13-2----0
2-6-2-31200-
2-----24---0
------3-512-
4------21022
1--14-0----1
--3----3-1-2
--5-43--3--2
--4743-326-3
--2-5-03----
---201-5-1-2
----2----0--
2--7-12--1-0
2---4---1---
-219---330--

Generation = 14, Population = 107.
--3--232634-
---111---1--
1-30--331-54
-143-111---1
----51-2-1-0
20-332-112--
4----2-32-21
--21-144-010
--303-5-53--
-----1-4324-
312-----3-1-
--51---3--0-
----4----43-
21---3----1-
2-----2----1
21-40--70---
5-------2--0
4--7-----3-0
4---4----11-
--1+33--521-

Generation = 16, Population = 42.
------3---6-
-------1----
-1--4---3---
-----------1
------------
2----------0
6---------2-
----2-----3-
2-------5-3-
---5----3-4-
----5-------
----2--3----
-1-----2--5-
-3--4--3--3-
--3-------1-
4----3-----2
5-0-4-------
----------2-
------11----
-4-+--------

Generation = 18, Population = 100.
-0----3-6-6-
-----1---2-0
--42--3-----
0------2-0--
50--5---1-1-
4-1-4----20-
--6-------4-
3-22--5---31
--3-5-6-7---
-0---1165---
412---065---
-253431541--
--6143--567-
3-584-3548-5
-03----53-3-
63051----2-2
--0-4--0--1-
51-7-2--1--2
5-0--1--32--
-----4----1-

Generation = 20, Population = 95.
-04-1-3-6---
2--2---1----
-2--523-3---
----3--2-00-
7-----2-1---
--346---242-
-16-4-5-2-4-
3---2-751-33
-05---65----
52----1----2
--2-----7---
---565--4-0-
-281432-7--2
35---45---35
3---5-25--3-
--05--------
-12-6-303-1-
---74-41----
---0--33---1
44-----4--11

Generation = 22, Population = 127.
2--2-2--6-6-
213-2--1--0-
12-----43-7-
2---513---22
7---632-3---
-13-6423-42-
-3-1---52-4-
-334-19-10--
30-2618-844-
--4-433773--
6--2-2279-22
-365---74---
-2--632--7-4
3----4-65935
5--15-27-151
---7---8--02
--2-82---0-2
5--74-632433
--1---35--13
-63-452-7-3-

Generation = 24, Population = 100.
4-5---4-6-8-
4--3----1301
3-5-53--52--
---453-2---4
----8--33-2-
-1-5664-3-2-
------7-2---
3----19----4
----8-+---6-
6-45--397-63
-13-7-47+---
-365-----1-2
--8--54-----
55-+-66----7
7-5-7--9----
-4-9240-1--4
------3-----
5-59-46-2-55
7-3-5----3--
-8-+-5---351

Generation = 26, Population = 106.
--5-13---5--
43532-1-3523
5-53--54--74
3-5653-4-2--
8---8-3-3-4-
6147-64---4-
----5--5--6-
-5-5-3--30--
-0----+5----
6--7-4---365
6--37---+0--
2-677---410-
-4-3--43----
57----66---7
--5-9-4--1--
----44-+-3-4
----9--241--
-25+56-42--7
----5--5---3
5-4--53-----

Generation = 28, Population = 109.
--7--5-2-79-
435-2-----4-
53---35-5374
-2-8-53-1---
--02--5---62
6---78--4---
837-5375-08-
--3--3---23-
4---82-7--8-
---95---736-
62-5-2-9--44
---77-3-43-3
16+-7-4--9--
----5--6--5-
9051+--+-3-2
7---6---2---
-----44---2-
-4----6--57-
--4-724734-5
584-5-5----3

Generation = 30, Population = 132.
-1931542-9--
-5--22------
5-6553-4--96
--6-6-55----
912-94-433--
814---5345--
8-725--7-0--
----43--5255
4-7-82-79--1
-3-95-4+----
8----25-+244
-37776----2-
--+575638+86
6-6+-7--6--7
9-51-16+-36-
94--8-1+-31-
73--96446---
-45+6-652---
9-61--4-3---
7-4+7-7-8-6-

Generation = 32, Population = 57.
--9-----7-+-
----4-------
55--5--6---8
----6--7----
----9-------
---8--------
----5-79----
3---6-----5-
--7---+-9---
----5-4----6
--5-8-------
-----------5
36-----3+-+6
87--6-----69
9---------6-
-4-+-----3--
7---+-------
7------7--7-
+-8-8--8--3-
9----6-5----

Generation = 34, Population = 103.
-29---44---2
--6-6-23----
7-76546-6-+8
--6+667--2--
923--------3
92---8-4--4-
-----3---0--
3--68---6--6
5-7----79-9-
7-4---6-938-
-4--+--9--55
45----4--327
---5957-+--8
+7----7-8---
+15-+--+--82
---+95------
9-2-+-45----
-57+---94---
+----25-45--
+-5+---7-37-

Generation = 36, Population = 113.
-4--3--4--+2
5--58---4---
76-8-68--4++
---+8---2-24
9-----7-4-7-
------64---0
-4-3---+3-8-
5-4---+68-56
-19---+9+--2
-46+7--+93-6
9---+--9+-7-
65-98--7--4-
36-795-4++++
-77--7--++-9
+-7-+-7+----
+5---7------
-54-+--5--32
-79+-889----
---2---84-46
+-7-9--7--95

Generation = 38, Population = 130.
5-+-5--47+-4
77-583--4--3
--8--8+876-+
348++779-34-
--3-+6-66394
+-59-+646--0
9-83--9+30-2
-6-794--+356
-1--+3+-+-+2
8-----6+9-+8
--66+-6-+---
85--+76764--
38+---8-----
+--+-988-+--
+-91--9-----
+-1+--2-23-5
-----7----5-
8-+-7+--4588
--9-8-6+6---
+8-+----9-9-

*** Life<FredkinCell> 8x6 ***

Generation = 0, Population = 4.
------
------
--0---
------
------
-0----
-0----
-0----

Generation = 1, Population = 13.
------
--0---
-0-0--
--0---
-0----
010---
0-0---
010---

Generation = 2, Population = 10.
--0---
------
0---0-
-0----
-10---
-2-0--
---0--
---0--

Generation = 3, Population = 23.
-0-0--
0-0-0-
---0-0
-1--0-
021---
03010-
-00-0-
--010-

Generation = 4, Population = 9.
--0---
-0----
00----
-2----
------
-----0
--1--0
-----0

Generation = 5, Population = 18.
---0--
-1----
110---
-30---
-2---0
--0-01
-0-00-
--0-01

Generation = 6, Population = 22.
-00-0-
-2-0--
2--0--
-4-0-0
031--1
-3-1--
0--110
---1-2

Generation = 7, Population = 32.
0-10-0
-301--
-10-00
0501-1
1-2002
0402--
--12--
0-0203

Generation = 8, Population = 13.
-0----
------
-21-1-
-6----
--3---
---3-1
--23-0
---3-4

Generation = 9, Population = 20.
0-1---
--0-0-
2-2--0
070-0-
-----2
--04-2
-034--
---4-5

Generation = 10, Population = 21.
--200-
-3----
32-01-
-----1
13-0-3
-----3
01451-
-1-5--

Generation = 11, Population = 19.
--3-10
-4----
4--12-
-----2
24----
--0--4
12-62-
-206--

Generation = 12, Population = 14.
----21
---1-0
--223-
-7-1--
35----
-4----
2---3-
------

Generation = 13, Population = 20.
----3-
---2-1
--3-4-
-802--
4630--
050-0-
---6-0
0---0-

*** Life<FredkinCell> 7x11 ***

Generation = 0, Population = 15.
-0-----0---
----0-0----
---00-0-0--
---------0-
0-------000
----------0
0----------

Generation = 1, Population = 25.
0-0-0---0--
-0--1-1-0--
--01--1----
0--00-0-01-
-0-----011-
--------0-1
-0--------0

*** Life<FredkinCell> 19x18 ***

Generation = 0, Population = 24.
------------------
------------------
------------------
------------------
--0--0------0-----
--------0---------
-0-0--0----0------
------------------
-----0--0---------
------------------
-----------0-----0
-------------0----
0---0---0-----0---
-0----------------
0-----0-0---------
----------0-------
-------------0----
------------------
---------0--------

Generation = 1, Population = 76.
------------------
------------------
------------------
--0--0------0-----
-0-00-0-0--0-0----
-000-000-0-00-----
0---00-00-0-0-----
-0-0-00-0--0------
----0-00-0--------
-----0--0--0-----0
----------0-00--0-
0---0---0--00----0
---0-0-0-0-----0--
0-0-0-0-------0---
-----0---00-------
0-----0-00-0-0----
----------0-0-0---
---------0---0----
--------0-0-------

Generation = 2, Population = 68.
------------------
------------------
--0--0------0-----
--------0---------
01--1-10--01--0---
------1---0-------
-00011---0--10----
--------1---------
-0-----1--0------0
-------------0----
0---00---0---100-0
-0---------1---0--
------0-0-000---00
---0------0--0----
--0---0---1--00---
-0------1---0-----
0-----0-00-0---0--
----------0-------
-------0-0-0-0----

Generation = 3, Population = 130.
------------------
--0--0------0-----
-0-00-0-0--0-0----
000-000--0000-0---
1200---1-0-200-0--
0-00--2---1-000---
01---2-----0210---
--0000----0-00---0
0-0---0--0-0-0--0-
00--00-0-00-01-0--
---0110-0-000-----
--0-000-00-2-0-1--
-0-0-0-----11---11
----0---00---1--00
-----0-00020--10--
-------02-0---00--
-----0---10---0-0-
0-----0000-0-0-0--
------0---0---0---

Generation = 4, Population = 69.
--0--0------0-----
--------0---------
-1-1--1----1------
------------------
23---01--1------0-
----0-------1-----
-20--3----01---0-0
-------------1----
101--0--01----0---
-1------0---------
00-1---01--1-1----
---------10------0
0-0--1----0-20----
-0---0------------
---------1310----0
------0------01---
0---0---0-----1--0
-0----------------
0----01-0---------

Generation = 5, Population = 153.
-0-00-0-0--0-0----
-000-000-0-00-----
0---00-00-0-0-----
0--0-0---0-0----0-
340--1210-0-0--0-0
0-00-02--01--0-000
0310--0--012-10---
0-------10000--0-0
21200-01-20----0--
0--0-0-----0-10---
1---1-01------0--0
-000-0-0-2--0---0-
-0-0020---1-310--1
----010--0-0-1---0
-0---00-02--1-1-0-
0---00-02000-1-0--
---0-000-1----200-
0-0-000-------0--0
----012--0--------

Generation = 6, Population = 143.
010-1010--010-0---
------1---0-------
1-01111-1---10--0-
----0---0---0-----
4--0123-1-12--01-1
--1---3---2--10---
1-2-1-10-1--2-100-
-0--0---2--11--1--
3--110120--000-100
---1--0--0---2---0
2-01--1-10-10-10--
-----1-1---21--1-0
010-1----0-1-210-2
------10-10--20--1
--0-01-0-3-1---0--
----11--3--10--10-
-----11-02-0---11-
---0--1------01---
0-00-2-00-0---0--0

Generation = 7, Population = 163.
1-1-2-2100--1--0--
-0-0-0--001--00-0-
--1-2---2001-100-0
--00-0-0-00-1-0000
-4-12---2--3---2--
-02-----0-3--21000
-33-2--10---31-110
0------03-0-2---00
--2-2-2---0-1-----
--------010-03---1
--1-1-212----12-0-
-0-0--0---03--0--1
1-1---0-01123-2---
00----2--2100--002
-0----010432-0-1-0
--00-2--40021112-0
---0-----3-1-0---0
0--1002--00001--00
--1---211--0--100-

Generation = 8, Population = 68.
-1-0-03-1--1------
--------1---------
--2--1-----21----1
-------------0----
45--3---3-1--00-0-
01--------------1-
-----31-11-2--1--1
----------1-------
31--------------0-
------------------
---1-------1-----0
-----1---------1--
2----2--12----3-1-
-----1--03--------
-1-0----1--3-11-0-
--1-------1-------
0-----1--------1--
-0----------------
00--0---2--1--2---

Generation = 9, Population = 163.
1----14-200-1-----
-000--1020--0----0
-1-12-1-2-032---0-
000-00--0-00-1--00
--01-2-1---30-1-11
--2-003--030-2-02-
13--242-221-31-1--
00---00-3-----0-00
422-------0----1-0
01-1-------0----01
--1-11----0-0--00-
0--0020-02-3-----1
-1--1-00--1--2-0-2
00-002201-10-2----
0-0-01-12----22--0
0-----0-40---1120-
--0--1-0--0---2-1-
010-0-2-0--0--10--
1-10-2-1-00-00-0--

Generation = 10, Population = 130.
--1022-1-11-20---0
------2---1--0----
-----120-0-4---011
11------1--1---01-
4-12--3--1141--22-
0-30------4--31---
---0--3--3-24-1211
11------4---2---1-
5-3--02-02--------
-----0----0----0--
--------2----121-0
---1-3-113---0---2
2210--1-1-2233---3
--01-33----1---0--
-1-0----3-3313----
10--12---1--1-----
--10----0-------20
--11------0-------
20-10-2-211111210-

Generation = 11, Population = 183.
-12--34--2--3-0-0-
--000030-02--1000-
11--22312-05210-22
-2-0-0---0----012-
-5--32-1-2252----1
1--10----05014-0-0
-3-124-1--13-1--22
-2-0-0-050--310-2-
62-12-3--3--1--10-
0-0-01-----0-3-101
---1----3-0-0----1
00-2--02-4-3---10-
3-2112202233--3014
00-2-4-0--1-0-0-02
-201--01-4442421--
2--0230-4---2---00
0----1-0--0-0--131
0--2--2---1-0110-0
311-1---3-2-----10

Generation = 12, Population = 121.
12------23-1-01010
00--1---2---0---1-
2--1--423----21-33
---------10------0
-612-----336--1--2
-13-10--0---2---2-
-4-23--2-3--------
-----10------211--
--3------40-20--1-
11---2--01------1-
-0-2-12--0------02
-10------5-4-----2
--3--33--34--3-1--
----05---3--12----
0--2-1--355---320-
3----4--------12--
-0---2---31-----42
--------00--------
--21-221--31112-2-

Generation = 13, Population = 162.
--2-2--1-4--31--21
1-0--03------1---0
3-2--25---0--32---
120---00-----1----
4-23-2----47-0-2-3
12---13--05--410--
1533-4--2-1-41122-
-200-21---1----2--
6--1--3---1-3---20
2--103-012--03-1--
--1---31--01---1--
0-------1-0-10-1-3
--41--40245--4--14
0-0-16----112---0-
120-0-0146642--310
4--02-0-4----1--00
--1-031---21--2-53
-112--2-1-10011--0
-132-3-2--4---3--0

Generation = 14, Population = 169.
123-------114-103-
2--0-----02------1
-1-12-6--0-52430-3
2-1--0-11--11--1-0
---4-331---8--13--
2-3-1240-16--521-0
--4---32-3--522-32
1-11---050-1-2-320
7----04-0-2-4--131
31---4---30--4-2-1
-0--1-4-3--20-2-02
-1-2---225-42--204
-2-2--5-3-6-353---
10-2-73--322-----2
2--2-1--5-75--34--
5-1134-05-------11
0-2---20-3---03--4
0----030--21--20--
3-4---2--15-1-4121

Generation = 15, Population = 148.
--4---------5-2-4-
30-1--3-2--0-1---2
3-2-32---10-3-----
-2-0-1--2-02--0--1
--2-3442-3-9---42-
--4123-1--7-----21
-5--3--32---6----3
2--2021-6-1--31--1
--312-521-30-00242
--0--50-14--0-03--
--1--1-140---1---3
0--3--03-60-3-031-
----1-604-7---4-1-
-------014---2-00-
----0---66--2445--
---2--0---12-1--2-
--3-03-10--101---5
-1--01--10-2--3---
4--2--3-32-1---2-2

Generation = 16, Population = 70.
1-----4-2----1----
-1----------------
4---4---32----3---
-------------1----
--3-----3--+2--5-3
------4-----2-----
---3-4---3-3--2---
----------2-------
72-2--6-24-14--3--
-1------2---------
202-12--51--0-2---
-1-----4-----0----
3---------833-5--4
-------------3---2
-----10-----3---1-
----3-----2-------
---0--22---2------
--------2---------
--4--------21-----

Generation = 17, Population = 141.
-----3---4--5-2---
3-0-1-3--0---10---
---1-2-2430----0--
2-1-0----1-2---1-1
-6-4--42-34+--1---
--41---101-03521-1
--4-----2-1--2-2--
22---21-60-13-13--
8---20---532500-4-
3--10500-4-0--03--
3-3-234--202-1-1--
02--030--6043-0--4
-------0-49-4--115
1----73---222----3
-----211--75---5--
-------0-1--2---2-
--3--333----0-----
--12--3--0--0-----
-1-2----3-5321----

Generation = 18, Population = 128.
1-4-----2511-130--
---1---------2----
--2---63--1--4-133
-2----0----31--2--
---5-45-34-+--25--
----2---1----63---
1-5--43----363--33
-3----2-----------
-----162-6--6-1--2
-1-2--11-----4----
-0-23-5-53130--203
-3-3-4--27-5-0-3-5
-2--1-6---+--5-2-6
-0--1--0--33-3---4
2---0-2-6---3-4--0
--1---0-----31---1
-04-044-0--2-1--5-
----0-4-----------
4-431-32-26-324---

Generation = 19, Population = 155.
-------13--2---14-
3-0-1-3020-00---12
-----2-443---5---4
2--0----21--2----1
-63-35---5-+----2-
2-4--3-12-------21
-5-3-5-32-14---244
-----2---0-1-31-2-
---222----32-0-34-
32-3--2---000--31-
3--34361-4-4112---
0--4--04---631--1-
3-4-23--4-+34--3--
-102-73--4-424-00-
--021-31-67-4--51-
5-22---0---------2
01----5--32-0231--
01---1--20220-3-0-
--5----3-37-4-52--

Generation = 20, Population = 124.
1-4-2-----13--32--
-----04-----1-----
--21--6--4153-3---
---------20------2
47-54-5236-----533
--5-------7-----3-
--5------32-63-3--
-3----20------2---
823--------3611-52
-3--053------4---1
--34------15-23---
-3-504---7-7-----5
425-3-6--4+-55541-
-2-------5---5-1-4
2-1-22----855-4---
60----015----11---
1--0-------2--42-5
----0---3---11---0
4--3-33-3--35--3--

Generation = 21, Population = 191.
------4--524-1434-
3--1-1-0-0-022-0--
-1324-744-2----1-4
221-0--1-3--2-02-3
58365-6---4---264-
2-6-2-41218036-14-
--63--3324--742---
-41--2316021-33-21
9-4222-2--34-2--6-
-40-1-41--0---0--2
-04-4-6---2---42--
-4--15--28-8---3--
5-6243-045+366-526
130--73-163426-20-
3---33-16-9-6-5--0
71-23-1-612--22--2
2-4---53--2--2-3-6
---2--4040-2-2--01
-15-144-4374--5-22

*** Life<FredkinCell> 12x18 ***

Generation = 0, Population = 7.
------0-----------
-------0----------
--0---------------
-0----------------
------------------
------------------
---0--------------
-----0------------
-----0------------
------------------
------------------
------------------

Generation = 1, Population = 19.
-----0------------
--0-----0---------
---0---0----------
0-----------------
-0----------------
---0--------------
--0-00------------
---0010-----------
----010-----------
-----0------------
------------------
------------------

Generation = 2, Population = 22.
--0-0-0-0---------
-0---0---0--------
0---0-0-----------
---0---0----------
--00--------------
-0---0------------
-0----------------
---1---0----------
-------0----------
-----1------------
-----0------------
------------------

Generation = 3, Population = 43.
-----0------------
----0-0---0-------
-----0---0--------
0--1----0---------
--1-00-0----------
01-00-0-----------
0100-0-0----------
-00-0-010---------
---0-1010---------
----0200----------
----010-----------
-----0------------

Generation = 4, Population = 17.
----------0-------
---0---0---0------
0--0--------------
-0----------------
-----10-----------
-------0----------
--1----1----------
---------0--------
-0-------0--------
------------------
---0--------------
-----1------------

Generation = 5, Population = 53.
---0---0-0--------
0-010-0-0---0-----
--010--0---0------
--01-00-----------
-0--021-----------
--0--0-10---------
-1-0--0200--------
-00----1010-------
0-0-----010-------
-0-0-----0--------
--0-01------------
---00-0-----------

Generation = 6, Population = 32.
0--1----0-0-0-----
-------------0----
001---0---0-------
-----------0------
0-1-1---0---------
-1---1------------
02--0-1-----------
-----------0------
--1--------0------
-----2---1--------
-----2---0--------
---1-1-0----------

*** Life<FredkinCell> 11x16 ***

Generation = 0, Population = 6.
-0--0--------0--
----------0-----
----------------
----0--------0--
----------------
----------------
----------------
----------------
----------------
----------------
----------------

Generation = 1, Population = 21.
0-00-0----0-0-0-
-0--0----0-0-0--
----0-----0--0--
---0-0------0-0-
----0--------0--
----------------
----------------
----------------
----------------
----------------
----------------

Generation = 2, Population = 22.
-0110-0----0-0-0
----1---0---01--
-0--1--------1--
--0---0---00---0
----------------
----0--------0--
----------------
----------------
----------------
----------------
----------------

Generation = 3, Population = 50.
01-----00-0-01--
--0--000-0--1200
0--0200-0-00-200
---000-0-011000-
--0-0-0---00-0-0
---0-0------0-0-
----0--------0--
----------------
----------------
----------------
----------------

Generation = 4, Population = 22.
12---0--10-----0
------1---0---1-
-0--3--------3--
0-------01-----0
-0--1--------1--
----------0-----
----------------
----0--------0--
----------------
----------------
----------------

Generation = 5, Population = 50.
231-0--021------
0---1--00--0----
--00-00-000-0--0
-0-----0121---0-
--00-0--000-0-00
-0--0----0-0-0--
----0-----0--0--
---0-0------0-0-
----0--------0--
----------------
----------------

Generation = 6, Population = 55.
--2-100-3200----
1---2---10-----0
0-11311-11-0-3--
0-0----1--21-010
-0111-0----0-1-1
0---1----1--01-0
-0--1--------1--
--0---0---00---0
----------------
----0--------0--
----------------

Generation = 7, Population = 77.
23----1--3-10--0
20---0-021---21-
----4-20--01-4--
10-0-00---32-1--
012------0-10-0-
-00--00-0-0-12-1
---0200--000-20-
---000-0-011000-
--0-0-0---00-0-0
---0-0------0-0-
----0--------0--

*** Life<FredkinCell> 6x17 ***

Generation = 0, Population = 12.
-----0-------00--
-----0-----------
-0----0--------0-
-----0------0---0
-----------------
-------0----0----

Generation = 1, Population = 30.
----010-----0110-
-0--01-------000-
0-0--0-0----0-0--
-0--0------0-0---
-----0-0--------0
------0-0--0-0---

Generation = 2, Population = 33.
-0-0-210---0122-0
---0-2-0----0---0
---001--0-----1--
---0-0----0-0---0
-0----0--------0-
-------0-00---0-0

Generation = 3, Population = 45.
0--1----0-012-3-1
-00-0-01----1--01
--01-20--00--0-0-
-00101--00---00--
0-00-----0--0---0
-0-------110-0-0-

Generation = 4, Population = 29.
------1---1----02
-1---2-2-0--2----
-01-------10-111-
-1-----011----1-0
-----0-------00--
---0----0--10----

Generation = 5, Population = 54.
-0---------12-313
02--0-0---0---0-1
0121-2--00210222-
02---101-2-0-0-0-
-0-00-00-0-0-1-00
--0-00-0-1121-0--

Generation = 6, Population = 47.
-10-0-1----23----
-3---2-20-10----2
1--2030-1132-33--
-3----1-1-0-0-1--
-101---1--0-020-1
---0-101---320--0

Generation = 7, Population = 56.
0-1--2--0---42--3
-4-003-3-0-1-000-
-123-4-02---04-20
-4--0-2122-01--00
0---0002-01013--2
-0-1-2--0--43--01

Generation = 8, Population = 36.
-1---31-----5----
-5---4-4-----1--2
12---501-1-2--33-
-5--1---3-0-201-1
-1---11------400-
----03--------01-

Generation = 9, Population = 41.
021-0-2----2----3
--0-0--500-1-----
232-----2-3--4-40
--01-1---2-0312--
020-0-220-1------
-0-11-----------1

Generation = 10, Population = 59.
1---1---00135--1-
-5--14-6111221-0-
3-3-05--3--2-5351
-5121--13--1-23-1
13--113-10--140-2
-102-3010-1----1-

Generation = 11, Population = 55.
---12----124--323
0--02--7-22-3-0--
--431-01----0646-
0-2-21-24-023340-
2401-2--21--25-03
---31-1--1-430---

Generation = 12, Population = 54.
1-1--3-00-35-2--4
-5-134-8---241-02
-3-42512-1--17--1
15----2--21---51-
--1--3-----0360-4
01--23-1-2-54-011

Generation = 13, Population = 46.
-2---4--1-4-533-5
-60-450--2--52-13
----362--2-----62
2--2213-4-2--3-21
-4-1-4-2----4-1-5
12-33--------0---

Generation = 14, Population = 46.
13---5-0-1---4426
0-1----8-3-2--0-4
334-4-32-3--1-473
--2-3--2-2-2--5-2
25---53---10---06
2---4--1--------1

Generation = 15, Population = 46.
-4--2--1-245555--
--2145-----------
--5-5-43--32--5-4
-53-4-33-323-36--
-6--1642--2-4--17
3--3----0-15----2

Generation = 16, Population = 31.
1---3-2--3----62-
-----6---3--52--4
---4-6--3---1-6--
2----144-4--34---
-7----5--------2-
--0--31----6----3

Generation = 17, Population = 45.
-4-1-5-1144-5-73-
0--1-7---422-30--
3-5------3-2---74
---24-554-23-5-2-
-----6---1-0461--
---344-1--1-4----

Generation = 18, Population = 51.
---2-6-2-5-5-5-46
1--2-808-53-54-14
4--45643-4--1---5
2--3516-5-343663-
----17------572--
--04----0--65-0--

Generation = 19, Population = 60.
1-13-723-64-56---
262-4919-642----5
-3556---353--7676
353----5-44--774-
2-11------20683--
-215-4-1-217-011-

*** Life<FredkinCell> 12x7 ***

Generation = 0, Population = 19.
-0-0---
--00---
0------
0000---
---000-
-------
-------
------0
-----0-
--0---0
0------
--00---

Generation = 2, Population = 43.
1----0-
--2010-
200-00-
-0--01-
1100-21
0001--0
---00--
--0-0--
0--0---
1-01---
0-0--0-
11-2100

Generation = 4, Population = 39.
11-20--
0-20--1
-2012--
101-03-
1--0--1
---3--2
-------
110-2--
-1-20--
1--11-0
0-2-0--
1-2---2

Generation = 6, Population = 45.
-312-21
2---3-1
4-03-1-
1-1-0-0
3--2-23
-1--1-4
11--1-1
3--1--0
23-2211
3----00
-0-1--0
---42-2

Generation = 8, Population = 26.
-----4-
--2---3
4--521-
11-----
5------
-------
11-0---
--2---0
-5-2-3-
--01--2
0------
2344---

Generation = 10, Population = 38.
1---2--
-1----3
-2-7--0
3--1--1
711-03-
031---4
--1----
4-23---
---4-3-
---1-0-
2032-1-
2-46413

Generation = 12, Population = 41.
-4-42--
3---4--
--093-0
-3--043
-3132--
---5---
-210---
4--34-0
4------
-1-12-3
-0542--
4448435

Generation = 14, Population = 37.
---6-5-
32--42-
63---3-
5-33---
9-15-4-
0--5---
--1--0-
6----00
6-0-2--
---12--
-274410
666----

Generation = 16, Population = 27.
2----7-
--31--5
-------
--33---
9--724-
25-7--4
2----2-
--23--2
-5-5---
-------
-2--61-
88-----

Generation = 18, Population = 46.
--27-7-
4353-35
---94--
--5-15-
-3-9--4
472921-
-32132-
---3-0-
8--744-
4212--3
-496--2
-879---

Generation = 20, Population = 38.
3427---
-3--6-7
-------
5-53---
--1+3-4
-749-14
--4----
-3-35-3
+5-94--
---4--5
-6--8-4
-8-9637

Generation = 22, Population = 35.
5---28-
5---6--
84--5-2
-4-3---
+4---6-
--4-43-
-46-5-1
---35--
+-0+45-
-3--4-7
38+----
--8----

Generation = 24, Population = 33.
76-9-+-
54-5--8
84-9---
6453---
-------
6969--4
46--5--
-------
+6-+-7-
-------
5----2-
+9+---7

Generation = 26, Population = 37.
762----
----738
--2----
-6-326-
---+4--
6----44
-6---42
7434--3
+-1-4--
452---7
-9+--2-
+9-+---

Generation = 28, Population = 34.
964+3--
-66--3-
-529---
766-484
-------
---+-4-
5-626-4
---6--5
--1-4--
---6---
--+----
+9---47

Generation = 30, Population = 39.
+8-+-+1
-88--3+
--2--4-
-864---
+5--5-6
7-6-5--
-78-85-
-5--7-7
--1+---
4--6---
7-+----
-+++86-

Generation = 32, Population = 26.
---+4+-
6885--+
9----6-
---6--6
+5-+---
--8+---
-7-2---
-------
-------
67-8--7
---8+--
------9

Generation = 34, Population = 47.
+95-4+1
-88--5-
-63+76-
8---68-
--3----
9+-+644
6----6-
774---7
-8--4--
893+51-
-++--34
++-+9-9

Generation = 36, Population = 36.
+--+--3
-----5-
--5----
--7-6--
-63+---
9-+---6
68-49--
---8---
+8-+---
-95+-17
9+--+-4
+++++-+

Generation = 38, Population = 39.
-+-+6+-
--+69--
-77-9-2
----69-
--3--7-
---+7-6
-+94-86
7--8---
+83--83
--5-73-
-+--+--
++-++--

Generation = 40, Population = 35.
-+-+---
6++---+
+9--9--
---8---
+----9-
++++---
-----+-
99-+--7
---+58-
++7+--7
9+-8-3-
--+---+

*** Life<FredkinCell> 11x20 ***

Generation = 0, Population = 1.
--------------------
------0-------------
--------------------
--------------------
--------------------
--------------------
--------------------
--------------------
--------------------
--------------------
--------------------

Generation = 3, Population = 12.
----0---0-----------
---0-0-0-0----------
----0-0-0-----------
-----0-0------------
------0-------------
--------------------
--------------------
--------------------
--------------------
--------------------
--------------------

Generation = 6, Population = 7.
--------------------
0-----------0-------
--------------------
--0-------0---------
--------------------
----0---0-----------
--------------------
------0-------------
--------------------
--------------------
--------------------

Generation = 9, Population = 15.
0-------------0-----
-0-----------0-0----
0-------------0-----
--------------------
------0-------------
-----0-0------------
------0-------------
--------------------
------0-------------
-----0-0------------
------0-------------

Generation = 12, Population = 14.
--------------------
0-0-0-0---0---0---0-
--------------------
--------------------
--------------------
0-0---0---0---0-----
--------------------
--------------------
--------------------
--0-------0---------
--------------------

Generation = 15, Population = 44.
------0-------------
-----0-0------------
----0-0-----------0-
---0-0-----------0-0
--0-0-----------0-0-
-0-0-----------0-0--
0-0---0-------0-0---
-0---0-0-----0-0----
----0-0-0---0-0-----
-0-0-0-0-0-0-0------
0---0---0---0-------

Generation = 18, Population = 10.
--------------------
------0---0-----0---
--------------------
------0-0---------0-
--------------------
----0---0-----------
--------------------
--------------------
--------------------
----0---0-----------
--------------------

Generation = 21, Population = 38.
----0-0-0---0-0-----
---0-----0-0---0----
----0-0-0---0-0-----
--------------------
--0---0-0-0-------0-
-0-0-0-----0-----0-0
--0---0-0-0-------0-
--------------------
--0-------0---------
-0-0-----0-0--------
--0-------0---------

Generation = 24, Population = 14.
--------------------
0---------0---0-0---
--------------------
--------------------
--------------------
0-----0-0-----0---0-
--------------------
--------------------
--------------------
0-----0-0-----0---0-
--------------------

Generation = 27, Population = 49.
0-0-----0-----0-0-0-
---0---0-0---0-----0
0-0---0---0---0-----
-----0-----0---0---0
0-0-0-------0---0-0-
-------------0------
0-0-0-0-0-0-0-------
--------------------
0-0-0-0-0-0-0-------
-------------0------
0-0-0-0-0-0-0-------

Generation = 30, Population = 23.
--------------------
0-0-0-------0---0-0-
--------------------
--0-0-0---0-------0-
--------------------
----0-0-----------0-
--------------------
------0-0-0-----0-0-
--------------------
----------0-0-0-0---
--------------------

Generation = 33, Population = 16.
--0-------------0---
-0-0-----------0-0--
--0-------------0---
--------------------
------0-------------
-----0-0------------
------0-------------
--------------------
------0-------------
-----0-0------------
------0-------------

Generation = 36, Population = 9.
--------------------
0-0---------0---0---
--------------------
--------------------
--------------------
------0---0-----0---
--------------------
--------------------
--------------------
--0-------0---------
--------------------

Generation = 39, Population = 64.
--0-0-----0-------0-
-0---0---0-0-----0-0
0---0-0-----0-----0-
---0-0-0-0---0------
0-0-0-0---0---0---0-
---0-0-----0---0-0-0
--0-0-0-----0-0-0-0-
-0-0-0-0-------0-0--
0-0-0-0-0---0---0---
-0-0-0-0-0-0-0------
0---0---0---0-------

Generation = 42, Population = 25.
--------------------
--0-----0-0-0-0---0-
--------------------
0-0-0-0-0-0---0-----
--------------------
--0-----0---0-0-0-0-
--------------------
--------------------
--------------------
--0-----0---0-0-0-0-
--------------------

Generation = 45, Population = 43.
--0-------0---------
-0-0-----0-0--------
--0-------0---------
--------------------
--0-----0-0-0-0---0-
-0-0---0-------0-0-0
--0-----0-0-0-0---0-
--------------------
0---0-0-----0-----0-
-0-0---0---0-0---0-0
0---0-0-----0-----0-

Generation = 48, Population = 14.
--------------------
0-------0---0-----0-
--------------------
--------------------
--------------------
--0---0-0-------0-0-
--------------------
--------------------
--------------------
--0---0-0-------0-0-
--------------------

*** Life<FredkinCell> 18x9 ***

Generation = 0, Population = 2.
---------
---------
---------
---------
---------
---------
---------
---0-----
------0--
---------
---------
---------
---------
---------
---------
---------
---------
---------

Generation = 2, Population = 8.
---------
---------
---------
---------
---------
---0-----
------0--
-0---0---
----0---0
---0-----
------0--
---------
---------
---------
---------
---------
---------
---------

Generation = 4, Population = 7.
---------
---------
---------
---0-----
------0--
---------
---------
-------0-
--0-----0
---------
---------
---0-----
------0--
---------
---------
---------
---------
---------

Generation = 6, Population = 27.
---------
---0-----
------0--
-0---0---
----0---0
---0---0-
--0---0-0
-----0---
0---0-0-0
---0---0-
--0---0-0
-0---0---
----0---0
---0-----
------0--
---------
---------
---------

Generation = 8, Population = 7.
------0--
---------
---------
---------
---------
---------
---------
---0---0-
0---0----
---------
---------
---------
---------
---------
---------
---0-----
------0--
---------

Generation = 10, Population = 22.
----0-0-0
---------
------0--
---------
---------
---0---0-
0---0----
-0-------
0-----0--
---0---0-
0---0----
---------
---------
---0-----
------0--
-0---0---
----0---0
---0-----

Generation = 12, Population = 22.
--0-----0
---------
------0--
---0---0-
0---0-0--
---------
---------
---0-----
0-0-0---0
---------
---------
-------0-
0---0-0--
---------
---------
-------0-
--0---0-0
---0-----

Generation = 14, Population = 42.
0-0-0----
---0---0-
0-0---0--
-0-------
0---0---0
-------0-
--0---0-0
-0---0---
----0---0
---0---0-
--0---0-0
-----0---
0---0-0-0
---------
0-0-0---0
---0-0---
0-----0--
-0-0-0-0-

Generation = 16, Population = 7.
---------
---------
---------
---------
---------
---------
------0--
---0---0-
--0-----0
---------
---------
---------
------0--
---0-----
---------
---------
---------
---------

Generation = 18, Population = 21.
---------
---------
---------
---------
------0--
---0---0-
--0-0----
-0-------
0---0---0
---0---0-
--0---0-0
---0-----
----0---0
-0---0---
------0--
---0-----
---------
---------

Generation = 20, Population = 18.
---------
---------
------0--
---0---0-
--0-----0
---------
--0-----0
---0-----
0---0-0--
---0-----
------0--
---0---0-
---------
-------0-
---------
---------
------0--
---0-----

Generation = 22, Population = 38.
------0--
---0---0-
--0-0----
-0-------
0-0-0----
-------0-
--0------
-0-0-0---
0-0-0----
-0---0-0-
0-----0-0
-0-0---0-
------0--
---0-0-0-
------0--
---0---0-
----0---0
-0-0-0---

Generation = 24, Population = 21.
--0---0-0
---------
---------
---------
------0--
---0-----
0---0----
-------0-
0-0-0---0
---------
---------
---------
0---0----
---0---0-
------0--
-------0-
--0---0-0
---------

*** Life<FredkinCell> 9x16 ***

Generation = 0, Population = 13.
---------0------
-------0--------
---------0------
-------0--------
-------------0--
----------00----
-0--00-0--------
---------------0
-------------0--

Generation = 2, Population = 43.
-------1---0----
-----0-0-0------
-------0-0-0-0--
-----0-0-100----
-0--00-1-0-1---0
-------101--11-0
--1--200-0------
----------00-1-0
-0--00-0---0-0-1

Generation = 4, Population = 35.
-----1---1------
---0---0--1-----
-0--0--0-0---0--
---0-------2---1
-------------1-2
------0-------02
0--1-4--1--1-0--
-------0---0-3-2
-0--22-0-0---2-3

Generation = 6, Population = 68.
-0-111-3---0-0--
-1-0----12-10--0
--11--12-----0--
-1-0-101-31---1-
00-110-100---1--
---10--31---2--2
0-211-0---13-2-0
-----01----2--04
101144020--2-4-5

Generation = 8, Population = 31.
----13-3-----0-1
----------11---0
-1-------------1
-------3--------
-0--3--3-0-2----
--03---3--21-32-
-04--5------1--0
---------0------
-----6-----4----

Generation = 10, Population = 62.
-1023-0--1-2----
-------224--2--0
-1-2-0---0-2----
--00-1-5-4---013
---2--13---412--
01--1--522-1-5-3
12---5---23--200
--10------2--31-
-011---2-1-414-6

Generation = 12, Population = 48.
13-25--303-2-0--
--10--0----3----
--3-02-2---20---
---2-----6-2----
21-43---1-------
0--4-----2-----5
12----2-12---4-0
-----1-2-1---5--
-23-56-----61---

Generation = 14, Population = 68.
--1--5-5050-0--2
12-0-0--3--3-1--
0-53242--114--0-
131--317-----0-4
--065-25110513-3
0216-----------7
----1521--4326--
1----3----------
-----6-31-183-06

Generation = 16, Population = 36.
-----7-7-5---0--
---------635----
-1--2----3------
-------7-6-----6
-3-8-----1---3--
---62105--------
-------3-4632--2
-1-----2-------6
---178-5-----4--

Generation = 18, Population = 59.
-4-27--7-7---0-2
--------5--732-0
-16--52----5----
---41-2---3--2-6
---+61----152---
--362-053-------
-4--3---26634-24
----1-32-3---7-8
-45-7+17--2-54--

Generation = 20, Population = 54.
-4--98-----4---4
---21----747-202
13---7--1-171--2
-4-4-3-8-------6
-3-+6--7-----3-4
1258---53-------
-4----2-28---844
---1-4---5---9--
3-------3-2-74--

Generation = 22, Population = 68.
3-2-9-17181-1--6
--24--0-59-----4
3-84-93-14-93002
1-2-2---0-54--2-
232+-2----1-4-0-
--583-15--3--5-8
16----2------8-6
2-2--4-21------+
-66-----3228----

Generation = 24, Population = 56.
---49----+3-1--8
-44-1004-----404
--+-3--2----3--2
-------+--------
---+7--8-3164---
235-5217-45-274+
--5-46---8--6+4-
-----4---6------
--637--7----9--8

Generation = 26, Population = 82.
-5-6-92-3+-5110+
2-4--00-7+-846--
4-+-5+32-41+-01-
1----4----6-0---
-42--22-13364--6
------17--5--96-
2--24-3--8-46-4-
31322644-8420+2+
38839+37--2-----

Generation = 28, Population = 69.
3-46-927-+4---0+
4-64-22-7+6-6816
--+--+5---3---34
---5-4---7-4----
2-4+-229-336-316
-46+-339-----+6-
-7-2-83---6--+46
-3-----4-----+--
--+--+5---49--2-

Generation = 30, Population = 61.
554----9---6-2-+
-58---4--+-9-81-
5--5---4---+---4
3--7-4-+2-6623-6
-------------3--
3--+-5--4---4+-+
47-448---+-5---8
-54---54-8-4-+4+
39+----7-3-+---9

Generation = 32, Population = 39.
-7--99-----8-4--
-----4---+79----
-------6---+----
-----4-+-8-----8
-5--73-+-3-7---7
-------+45626+--
--7--834-----+--
-------4-----+-+
-----------+---+

Generation = 34, Population = 55.
-75-+94--+-+---+
---4-6-59--+89-7
-----+-8-4-----6
---8---+3+-72--+
-------------4-9
------3+47--6-8+
48-55---2--7---9
-----8-62-5-2---
--+--+69-4-+-5--

*** Life<FredkinCell> 11x10 ***

Generation = 0, Population = 17.
----------
--------0-
----------
--0-0-----
---000-0--
----------
---00-----
----0---0-
---0---0--
------00--
0--0------

Generation = 2, Population = 37.
----------
--0-0-0---
---010-0--
0-0-2-0-0-
-00-2-00-0
--0-----0-
-01-0-0---
--0---00--
00--0----0
-----1---0
-11--0-1--

Generation = 4, Population = 31.
---010-0--
----2-----
---21-----
----2-2---
02------0-
------000-
---1---01-
1-2-------
2--100---2
--10--21-2
--3-------

Generation = 6, Population = 54.
-012-20--0
--0-2-----
0-143-100-
--1----1--
2-214-012-
1-0--1--21
---1101-1-
---12---11
421--20214
-11----30-
--50-1---1

Generation = 8, Population = 40.
----3--1--
1---4-01--
0---31-2--
--------1-
434--2-320
------214-
--2----011
3-2-------
----04---4
0----23-0-
----011201

Generation = 10, Population = 55.
1-2---1--0
3---412--0
-1253-341-
0---4-2-3-
6-----2-22
3-1-024--3
-24--12-3-
3-4-31-2--
---224---4
---01-342-
--522332--

Generation = 12, Population = 53.
31245-----
---0-----2
23-5-----0
2-2-6---3-
6-61-22-22
--30-4-2-5
---233-1--
3-6-3-1-2-
--1-240314
01---3-643
03-4----1-

Generation = 14, Population = 58.
-126-42--2
400-41-214
2-374-441-
--4-60-2--
8-816-442-
51-22-6---
136-5-3--3
3082------
-3322--5--
----25--4-
----4--2-2

Generation = 16, Population = 39.
----7--2--
--2----2--
4---62-4--
2---8---5-
---3---6--
------636-
33-2---3-3
3-8-4-3-3-
---42--5-4
02-----7--
-3-5-352-2

Generation = 18, Population = 49.
4-4---4--3
-----2--34
6---6456-1
4-4---2-5-
---372----
--3-35--86
35726--5-3
51----3---
544--6-7--
---1473-53
-----55-2-

Generation = 20, Population = 47.
----74--05
4-30----56
--5-----13
----9-4-5-
-------7--
71-25---+6
3-9---4---
7---6-3-3-
56-5--1-1-
2-23473-55
04665-----

Generation = 22, Population = 54.
---796---5
-13--4-378
8----57-3-
-0------7-
+----24-4-
-3-4-6-3-8
3792--66--
729-623-5-
7-6--7--1-
22-3673--7
-488-5--4-

Generation = 24, Population = 51.
424-96--0-
43--444-9-
--7----8-3
--5---4-7-
+4--926---
855-687---
-7-2--6-35
9---8-3-7-
7-8637--3-
--2------7
---86753--

Generation = 26, Population = 53.
44---6--27
4-5-4-65--
9-9-86983-
6-7---6---
+4959-----
8-7-6-95+-
--+-73-6-7
-3---45-71
---6----54
------5857
04-+6----3

*** Life<FredkinCell> 14x7 ***

Generation = 0, Population = 19.
-0-----
0------
0------
------0
00-----
0------
----0--
---0--0
-------
------0
---0-0-
---0000
0----0-
-------

Generation = 1, Population = 32.
--0----
1------
10----0
-0---0-
-10---0
1---0--
0----00
--0--0-
---0---
---0---
--01010
0-0---1
-0-0-1-
0----0-

Generation = 2, Population = 44.
00-0---
2-0---0
--0----
----0-0
--100--
2-00---
100---1
00--01-
---100-
-----00
00-2---
-010002
0-0--2-
---0010

Generation = 3, Population = 52.
-10-0-0
301--0-
10100--
----1--
01-1-00
301---0
21--0--
-------
000211-
00----1
1-03---
0-21-13
-0100-0
0--1-21

*** Life<FredkinCell> 7x14 ***

Generation = 0, Population = 16.
0-0------0-0--
0----0--------
------------0-
---00--------0
---------0----
-0----0-------
----------0-00

Generation = 1, Population = 43.
1--0-0--0---0-
100-0-0--0-00-
0--000-----0--
--0110---0----
-0-00-0-0-0--0
0-0--0-0-00-00
-0----0--0--11

Generation = 2, Population = 27.
2---0--0----10
2-1-1--0-----0
1-0-------01--
0-1--------0-0
-------0--10-1
--------0----1
--------01-0--

Generation = 3, Population = 45.
300010010--02-
--2-20010-00-1
---00--0-01-0-
1-21---0--0--1
0-0---0--02---
--------1-0-02
-------0-2--11

Generation = 4, Population = 40.
4-1-2112-0--3-
2-3-311--0----
1-0-----0121-0
2------100-0--
1-1--0---1300-
0-0---0---1---
------0-0--0--

Generation = 5, Population = 48.
5-2--223-100-0
-----2-----001
--10000-------
-0---00211---1
--200--0--4111
1-10--101-200-
0-0--01--2--1-

Generation = 6, Population = 44.
---02--4-2--31
2--0--11-0----
--2-----01-10-
2-2-1-13-2-0-2
1--11-0-0--22-
2-2----120-11-
1-1-01------21

Generation = 7, Population = 54.
5-2-32-5-30042
-0-1-22-0-00-1
-03-0--012--1-
3-312--4-3----
-022--1-1143--
--3--0-231--2-
2-2-121002---2

Generation = 8, Population = 31.
-0-04-2-0411--
-1----3-1----2
----1---2-----
--42-0-5---00-
-1---------4--
2----1---2----
--3-23-11-0---

Generation = 9, Population = 48.
51-15-3----242
2231-24---000-
-03---0-32-110
--532-----0-12
---2---0-145--
--3--212---1--
20--3--222-0--

Generation = 10, Population = 47.
--2-6245----53
--4-33511-1-12
--401-1-43----
---43015131---
--23-0-1-25--1
2----3-3----2-
31-0-----3-12-

Generation = 11, Population = 50.
-13--35---12--
-2-144-2-0----
-0-12---5-2-10
--5541262--0-2
113-1-1-1--5--
3-3-04-43-2-3-
-2--33-22--2-2

Generation = 12, Population = 50.
5-4---6---235-
2-4-5-5-1-1012
1142301063-12-
30-6--3-33-113
--43--2--2-6-1
4-4-1-1-4-----
---0-----3--2-

Generation = 13, Population = 49.
6-51637504-4--
-2-164-220---3
22534-----2230
-------6-4-22-
-----0-113-722
--5---2--2-132
3-----1---02-2

Generation = 14, Population = 59.
-16274-61---53
23-2--5-3----4
33-4----63334-
30564137351333
--4-1-2--4-8--
40-0--3--32243
-23--322--1-23

Generation = 15, Population = 50.
---3-577-4-46-
-44----2--1015
445--0--7444-0
-1675-4-4-2-44
-15-20------2-
5-------4-335-
--4-34332-22--

Generation = 16, Population = 22.
-1---6----2---
-------3-0--2-
5-6-----------
-2------5533--
---3-1--------
------3-5--4-3
32--4---------

Generation = 17, Population = 47.
6-6-7-77---46-
244--45----0-5
-4-4---07-444-
---7-1-76--44-
-15------45--2
50-01----33---
4340-43-2--2-3

Generation = 18, Population = 31.
717--6-81-2-7-
-5---5-33-----
-5654-----5---
---8------3---
--6321-1------
-1--2-3-------
-4--454-------

*** Life<FredkinCell> 13x4 ***

Generation = 0, Population = 17.
-0--
-0--
----
0-0-
000-
---0
0---
0-0-
--0-
--0-
----
0-00
0---

Generation = 2, Population = 25.
-2-0
1-10
1-1-
-121
0-00
-1-0
-11-
---1
----
0--1
1-0-
-0-2
--1-

Generation = 4, Population = 21.
0-12
----
31--
--2-
0-02
--0-
--3-
1--1
10--
2-11
----
10-2
----

Generation = 6, Population = 24.
----
--2-
5-10
1-4-
0--4
--01
2250
-01-
3--0
--33
21--
-2-2
----

Generation = 8, Population = 28.
0-33
--4-
723-
--62
2-26
---3
-45-
3--2
31--
305-
--0-
-412
11--

Generation = 10, Population = 31.
--3-
2-40
--51
128-
2028
1315
367-
----
5102
32-4
4---
--3-
-1-1

Generation = 12, Population = 20.
1--4
2--0
----
-4+3
4-28
3---
--70
--1-
----
52--
----
-4-3
3--1

Generation = 14, Population = 25.
-35-
4---
--7-
16-3
-1--
5415
-87-
41--
--12
74--
6--1
2---
-12-

Generation = 16, Population = 30.
25-6
-151
8-7-
3--3
-1-8
-437
4+7-
6---
--3-
7655
6-1-
-44-
-34-

Generation = 18, Population = 24.
4--8
-1-1
+-9-
56+5
----
66-7
-+--
--2-
52--
7---
-11-
-46-
-3-3

Generation = 20, Population = 31.
45--
5-73
+-+2
56+-
523-
--47
4+-2
82-3
5--3
976-
----
---4
-553

Generation = 22, Population = 32.
47--
5--3
-3-2
7-+6
-4-8
774-
4--2
--23
--4-
9786
822-
3-66
4-53

Generation = 24, Population = 23.
--7-
-2--
+3-2
----
6---
7-68
6---
+3--
6345
998-
+-4-
3---
--5-

Generation = 26, Population = 31.
-87+
---5
-3--
78+8
865+
7-8+
6+-4
+32-
-3--
-++7
+462
-6--
----

Generation = 28, Population = 33.
5+7+
6-7-
+--2
78--
+85+
-88-
-+-6
+343
--67
-++-
--8-
-87-
5753

Generation = 30, Population = 27.
----
649-
+4+2
-8+8
+-7-
7-8-
7---
-56-
8-8-
----
-5--
4896
7-75

Generation = 32, Population = 24.
6+9+
-6--
+4--
9---
-9-+
--++
9-7-
--65
84+-
+--7
----
-++-
9---

Generation = 34, Population = 23.
-+-+
7--7
---2
+9-9
--8-
-9+-
9--8
-687
8--8
+-+-
-79-
----
--8-

Generation = 36, Population = 13.
----
--+-
--+-
---+
----
--++
-+--
----
----
-+-7
--9-
4-+-
99--

Generation = 38, Population = 23.
--+-
7--8
+---
-+--
-9+-
7+--
---+
-88-
-5+-
+++-
-8--
-++7
-+-5

Generation = 40, Population = 22.
--+-
9-+8
+4+-
-+--
----
9--+
-+-+
+-88
97--
--+-
--+-
--+-
-+-7

Generation = 42, Population = 20.
-+--
--++
---2
--++
+-++
----
+---
+8--
99--
---8
---3
5-+-
--97

Generation = 44, Population = 32.
-+--
+6+-
+-+-
+++-
+++-
9+++
++-+
+-+-
--+-
--++
+-+-
--+8
++99

Generation = 46, Population = 29.
7+++
+8-+
+---
--+-
-+--
--+-
--7-
+9+-
+++9
-+--
+8+5
5++-
--+9

Generation = 48, Population = 25.
---+
+8--
---3
-+++
+-++
-+--
--7+
-+-8
+-++
---+
+-+-
-++9
---+

*** Life<FredkinCell> 19x2 ***

Generation = 0, Population = 2.
--
--
0-
--
--
--
--
--
--
--
0-
--
--
--
--
--
--
--
--

Generation = 3, Population = 9.
-0
--
-0
--
-0
0-
--
0-
-0
--
-0
--
-0
0-
--
--
--
--
--

Generation = 6, Population = 6.
0-
--
--
--
0-
--
--
--
0-
--
0-
--
--
--
0-
--
0-
--
--

Generation = 9, Population = 5.
--
--
--
0-
-0
0-
--
--
--
--
--
--
--
--
--
--
--
0-
-0

Generation = 12, Population = 6.
0-
--
--
--
0-
--
--
--
0-
--
--
--
--
--
0-
--
0-
--
0-

Generation = 15, Population = 11.
--
--
--
0-
-0
0-
--
0-
-0
--
-0
--
-0
0-
--
0-
-0
--
-0

Generation = 18, Population = 6.
0-
--
--
--
--
--
0-
--
0-
--
0-
--
0-
--
--
--
0-
--
--

Generation = 21, Population = 11.
--
0-
-0
--
-0
0-
--
0-
-0
--
-0
0-
--
--
--
0-
-0
--
-0

Generation = 24, Population = 2.
--
--
0-
--
--
--
--
--
--
--
0-
--
--
--
--
--
--
--
--

Generation = 27, Population = 9.
-0
--
-0
--
-0
0-
--
0-
-0
--
-0
--
-0
0-
--
--
--
--
--

Generation = 30, Population = 6.
0-
--
--
--
0-
--
--
--
0-
--
0-
--
--
--
0-
--
0-
--
--

Generation = 33, Population = 5.
--
--
--
0-
-0
0-
--
--
--
--
--
--
--
--
--
--
--
0-
-0

Generation = 36, Population = 6.
0-
--
--
--
0-
--
--
--
0-
--
--
--
--
--
0-
--
0-
--
0-

Generation = 39, Population = 11.
--
--
--
0-
-0
0-
--
0-
-0
--
-0
--
-0
0-
--
0-
-0
--
-0

Generation = 42, Population = 6.
0-
--
--
--
--
--
0-
--
0-
--
0-
--
0-
--
--
--
0-
--
--

Generation = 45, Population = 11.
--
0-
-0
--
-0
0-
--
0-
-0
--
-0
0-
--
--
--
0-
-0
--
-0

Generation = 48, Population = 2.
--
--
0-
--
--
--
--
--
--
--
0-
--
--
--
--
--
--
--
--

*** Life<FredkinCell> 20x2 ***

Generation = 0, Population = 15.
--
0-
--
00
-0
0-
0-
00
00
--
-0
-0
--
--
--
-0
--
--
0-
-0

Generation = 2, Population = 15.
--
-1
-1
20
12
2-
--
-0
--
1-
1-
-2
-1
--
--
-0
0-
--
0-
--

Generation = 4, Population = 19.
-1
1-
0-
--
3-
--
11
-0
1-
3-
31
04
13
--
01
-0
--
-0
--
--

Generation = 6, Population = 20.
0-
3-
-2
2-
33
-1
31
22
3-
--
5-
-6
13
0-
--
--
00
--
--
-0

Generation = 8, Population = 21.
-2
--
--
-2
-3
--
3-
4-
50
3-
51
28
-3
20
--
1-
22
-1
01
--

Generation = 10, Population = 17.
--
-3
--
-4
45
42
--
--
7-
31
-1
2-
2-
4-
1-
--
--
11
--
-1

Generation = 12, Population = 20.
--
--
12
36
47
4-
-3
--
91
-1
-3
49
-4
--
--
-1
3-
3-
--
11

Generation = 14, Population = 24.
12
54
--
-8
-7
-3
-3
52
+1
3-
63
6-
--
4-
22
21
5-
--
1-
3-

Generation = 16, Population = 19.
--
5-
2-
5+
--
63
43
--
-1
32
--
8-
--
60
-2
-1
72
-2
--
--

Generation = 18, Population = 18.
2-
-5
2-
5-
-7
--
4-
--
+-
-2
-5
8-
-6
--
3-
31
9-
--
22
-2

Generation = 20, Population = 25.
2-
75
-2
7+
-7
7-
-4
-3
-2
44
7-
8+
2-
-1
-2
53
+3
4-
-2
--

Generation = 22, Population = 16.
-2
--
4-
9-
-9
--
-6
--
+-
-4
-7
-+
-7
-3
--
--
+3
-4
3-
4-

Generation = 24, Population = 17.
4-
8-
6-
+-
5-
7-
5-
-4
+-
--
8-
-+
--
--
4-
--
-3
66
-2
-4

Generation = 26, Population = 19.
6-
--
6-
+-
5-
-4
7-
64
+-
--
--
-+
--
-4
43
65
+-
8-
--
66

Generation = 28, Population = 19.
6-
8-
8-
++
7-
--
9-
8-
--
5-
8-
--
37
76
-5
--
-4
+-
4-
8-

Generation = 30, Population = 17.
8-
-6
8-
-+
9-
-4
--
--
--
--
-8
-+
--
78
47
-5
+-
--
43
+-

Generation = 32, Population = 18.
8-
--
8-
-+
--
--
+-
-5
-2
-6
-+
+-
4-
78
-9
8-
+-
+8
-5
--

Generation = 34, Population = 19.
8-
-6
--
-+
--
--
+6
--
+-
7-
9-
--
4-
78
-+
+-
+-
-8
47
+8

Generation = 36, Population = 16.
--
--
8-
--
9+
-5
-8
9-
+3
7-
+-
-+
-7
-8
-+
--
--
--
-9
-8

Generation = 38, Population = 13.
8-
--
-3
-+
--
75
-+
-7
--
-6
--
+-
6-
--
--
-7
--
-+
-+
--

Generation = 40, Population = 22.
-3
-7
95
+-
--
95
-+
+9
-4
8-
+-
++
8-
88
4-
--
-4
--
-+
-+

Generation = 42, Population = 18.
95
87
9-
--
+-
+-
--
+-
+-
+-
-+
+-
8-
--
-+
+8
+-
-+
--
--

Generation = 44, Population = 20.
9-
+7
+5
-+
--
--
--
+-
+6
+-
-+
--
+-
-+
-+
+-
+5
+-
4-
-+

Generation = 46, Population = 21.
+5
+-
-7
+-
++
+5
++
--
+-
--
--
++
+-
9+
--
-9
--
-+
-+
+-

*** Life<FredkinCell> 2x10 ***

Generation = 0, Population = 7.
--0---0--0
-00-00----

Generation = 2, Population = 10.
0-2---011-
12---200--

Generation = 4, Population = 10.
2----0-3-1
-40-2-2-00

Generation = 6, Population = 10.
--30---3-3
16-02-21--

Generation = 8, Population = 9.
30500----3
-------121

Generation = 10, Population = 9.
5-5--105--
-----34-21

Generation = 12, Population = 8.
5--1--2-25
---043----

Generation = 14, Population = 11.
-16311-6--
-72-4-42--

Generation = 16, Population = 13.
6--3-33--6
37-165-242

Generation = 18, Population = 11.
-18-3-5-3-
---165-442

Generation = 20, Population = 12.
83-55-5---
-92-87-664

Generation = 22, Population = 7.
-----4--5-
39-----866

Generation = 24, Population = 12.
---6-4677-
-+42-96-88

Generation = 26, Population = 7.
-4--54---7
5-42------

Generation = 28, Population = 10.
-49-768---
5+-48+----

Generation = 30, Population = 10.
94--78-87-
---6+-69--

Generation = 32, Population = 10.
-6--7---98
-+68---989

*** Life<FredkinCell> 18x19 ***

Generation = 0, Population = 3.
-------------------
-------------------
-------------------
-------------------
------------------0
----------0--------
-------------------
-------------------
-------------------
-------------------
-------------------
-------------------
------------------0
-------------------
-------------------
-------------------
-------------------
-------------------

Generation = 2, Population = 12.
-------------------
-------------------
------------------0
----------0--------
----------------0-0
--------0---0------
------------------0
----------0--------
-------------------
-------------------
------------------0
-------------------
----------------0-0
-------------------
------------------0
-------------------
-------------------
-------------------

Generation = 4, Population = 10.
------------------0
----------0--------
-------------------
-------------------
--------------0-0--
------0-------0----
-------------------
-------------------
-------------------
----------0--------
-------------------
-------------------
--------------0-0--
-------------------
-------------------
-------------------
------------------0
-------------------

Generation = 6, Population = 36.
----------------0--
--------0---0------
--------------0-0-0
------0---0---1----
------------0-2-0-0
----0---0---0---1--
--------------1-0--
------0---0---0----
-------------------
--------0---0------
--------------0-0--
----------0--------
------------0-0-0-0
-------------------
--------------0-0-0
-------------------
----------------0-0
-------------------

Generation = 8, Population = 12.
-------------------
----------0--------
------------------0
-------------------
----------1-2-----0
--0---------------1
-------------------
-------------------
-------------------
-------------------
-------------------
-------------------
----------1-0-----0
----------0--------
-------------------
-------------------
------------------0
-------------------

Generation = 10, Population = 40.
------------------0
--------0---0------
----------1-0---0--
--0-------1-------0
--------0-1-2-3-1--
0---0-----------1-3
----------0-0-----1
--0---------------0
-------------------
-------------------
----------0-0-----0
----------1--------
--------0-3-0-0-0-0
--------0---1------
----------1-0------
----------0--------
----------------0-0
-------------------

Generation = 12, Population = 30.
----------0-1------
--0---0---1---0---1
--------------1-0--
-------------------
------0-0----------
0-----0---0---2-3--
------------------1
-------------------
-------------------
--0-------1-------1
-------------------
-------------------
------0-2---------0
------0-------1----
-------------------
-------------------
----------1-0-0-0--
----------0--------

Generation = 14, Population = 79.
--------0-------0--
0-----------------1
------1-0-3---3-0-1
0-0-------------1-0
----0-2-0-3---4-3-1
0-0-0---------2-3-5
------1-0-------2-1
0-0---0-------1-0-2
------------------1
0---0---0---0---0-1
------0-0---------1
--0---1---1---0---1
----0-2-2-4-----0-0
----0---2---1---0--
------1-0-2-1-1-0-0
------0---2---1----
--------0-3-----0-0
--------0-2-1------

Generation = 16, Population = 12.
-------------------
-------------------
------------------1
-------------------
--0-2--------------
----2-------1------
-------------------
-------------------
------------------1
----------1--------
------------------1
-------------------
--1-2--------------
-------------------
-------------------
----------2--------
------------------0
-------------------

Generation = 18, Population = 43.
------------------0
-------------------
--0-0-----------1-1
----1-------0------
0-0-4-2-----------1
--1---1---0---3----
--0-1-------------1
----0-----0-0------
----------------0--
--------1---0------
--0-0-----------0--
----------2--------
0-1-2-3-----------1
----------1--------
--0-0-------------0
--------0---0------
----------------0-0
----------3--------

Generation = 20, Population = 34.
--0-0-------------0
----1-------1------
--------------3-1--
-------------------
------4-0---------1
1---------0-----3--
-------------------
-------------------
--------------0-0--
----1-0-----0-0----
--------------0-0--
----------2--------
------3-3----------
----------1--------
------------------0
------1-------2----
--0-0---------0-0-0
----------3--------

Generation = 22, Population = 95.
0-----0-------0----
--1---0---2---2----
--0-2-1-0---2-3-1-1
0---1-----1-0---2--
----5-4-0-4---5---1
1-1-----1---1-3---6
------2-0-----2-3-1
0---1-1---0-0-2-2--
------------1-----1
--0-1-0-1---0-0-0--
------2-1---1-----1
----0-2-1-2---1----
----2-3-3-5---0-1-1
------2-3-1-2-1----
--0-0-3-1-----3----
----1---0---0---1--
0-0-0-1-----0-2---0
------0-1-3-1-1----

Generation = 24, Population = 39.
------------------0
----3-----2-2------
--2-4-----3-4-----1
-------------------
----------6-2-----3
--1-4-------1-----6
-------------------
----------0--------
----------1-1-----1
--0---------------1
----------2-3-----1
-------------------
----------5-2-----1
----1-----3-2------
-------------------
--0---------------1
--0-2-----4-0-----0
----------3--------

Generation = 26, Population = 86.
--0-2-----2-2---0-0
--3---0-0-4-4-2----
0-2-6-2-0-----4-2-1
--1-------2-------0
--2-7---1-----6-3--
1-1-4-2-------3-3-8
-------------------
----1---0----------
--------0-----1-0--
0---1-----1-----0-1
--------1-2-3-1-0-3
--0-1-----3-0-----1
--------3-----0-1--
------2-3-5-4-1---1
--1-2--------------
0-----------2---1-3
0-2-2-2-1-6-0-3-0-2
--1-----1-5-3-----1

Generation = 28, Population = 70.
--2-2---------2-0--
1-3---2---6---4-0-2
------------------3
----------2--------
------5-1-7-3------
--3-6-2---0-2-5---8
--2-2--------------
------2-------4----
------0-2----------
0-0---1---3---0-0-3
------2-1----------
--0-------5-------3
--2-4-4-5----------
0-1---2---5---3-1-1
----------4-2-----0
2-----2---3---4-3--
--4-2--------------
--3-1-2---7-5-3---3

Generation = 30, Population = 81.
1-----2-----3------
--5-------6---6----
--3-6-4-1-4-5-6---5
0---1---1-------3--
--3---7-----5-8---5
1-5---------------8
0-4-4-3---1-1------
0-------2----------
--1-------3--------
------1---3-------3
--0---4-1-2--------
0---2---1---1---0-3
1-2---6-----3-----1
0-----4---------1-3
------4---4-2-4-1-2
--2---------4-4---5
2-6-4-2---7-1-----3
----3-2---7-5-3-0--

Generation = 32, Population = 10.
------------------0
-------------------
-------------------
-------------------
----------7-5------
--5---------------+
------------------3
-------------------
-------------------
-------------------
------------------3
----------6--------
----------6-5------
-------------------
-------------------
-------------------
-------------------
-------------------

Generation = 34, Population = 36.
----------------1--
-------------------
----------5-5-----5
--1---------------1
--------1-7-5-8---7
2---7-----------4-+
----------1-1---4-5
--0---------------3
-------------------
----------3--------
----------4-4---1-3
--------2---3------
--------5-8-5-1---1
----------7--------
----------4-3------
-------------------
-------------------
-------------------

*** Life<FredkinCell> 15x4 ***

Generation = 0, Population = 12.
----
0--0
--0-
-0-0
----
--0-
----
--0-
---0
---0
----
----
0--0
----
--0-

Generation = 1, Population = 26.
0--0
-0--
0--0
0-0-
-000
-0-0
----
-0--
---1
--01
---0
0--0
-00-
0-00
-0-0

Generation = 2, Population = 29.
--0-
0-0-
1---
1010
--1-
0101
---0
0-00
-0-2
-012
0---
---1
01-0
----
--01

Generation = 3, Population = 33.
0010
1-10
---0
--21
-0-0
1-1-
-00-
-011
-1--
----
--0-
-002
12-1
000-
-012

Generation = 4, Population = 27.
--2-
20-1
1-0-
--32
---1
--2-
--1-
0122
02-2
-01-
--1-
--1-
-3-2
---0
--23

*** Life<FredkinCell> 12x14 ***

Generation = 0, Population = 18.
--0-----------
----------0---
--------------
-0--------0---
----00-------0
--------------
--------------
----0-----000-
---0-----0----
-----0----0---
--------0---0-
------------0-

Generation = 1, Population = 55.
-0-0------0---
--0------0-0--
-0------------
0-0-00---0-0-0
-0-0110---0-0-
----00-------0
----0-----000-
-----0----1-10
--0--0--0-000-
---00-0-0--00-
-----0-0-00010
--------0--010

Generation = 2, Population = 55.
0-0-0---------
-0------0-0-0-
--0-00-------0
---0----0-0-0-
--01--10---0-0
-0--1------00-
---010---0---0
--0--10-00--21
-0---1-01--11-
---11--01-011-
---0--0--1----
-----0------2-

Generation = 3, Population = 66.
-0---0--0-0-0-
--0--0-0------
---0110-----0-
--01-00----0-0
--1--121---1--
0--02-00-00-10
-0-12----10001
-----210--1---
0--0-20-2---2-
-00-2----012-0
--01-------0--
---00----0-0-0

Generation = 4, Population = 43.
0---010------0
------0---0---
--0-----------
-0--011---010-
0021----00-2--
-----0--------
--------0---1-
00----21--2--1
----0--0------
-1----0--1--1-
----0-------1-
----10--0--1--

Generation = 5, Population = 94.
-0-01--0--0-0-
0-0-0-10-0-0-0
---011-----00-
-10-1-200-1210
11-2--211103--
00002-0--0-01-
00---00--100--
110-023--0-0--
0--0-201200-20
0-0--0--1-1220
-0-11-0-01--20
---0-100-00---

Generation = 6, Population = 94.
--01-1-10--0--
-0---02---01--
0001-20-00-1-0
--1-21-1-0--21
-2-31132221400
1--130-----120
11012-1002-1--
22101-4----1-1
--0-031-31----
11-1-10------1
--0-2-10--0---
-00112110-1120

Generation = 7, Population = 90.
--12-20210-10-
-10-01----1200
111213-01-0201
012--2-2---2-2
--2----3-3-5-1
20-2--0----23-
221-30---3----
-3-122----22--
-01--42-4201--
22----1-111-2-
001-3-2--11-2-
011-2-221----1

Generation = 8, Population = 51.
---31----10---
--1--2--------
----24--2---12
-23--3---0--2-
-23--1-4----02
----------0-4-
--2-----0---1-
---233--00--2-
-12------3----
-30-2-----2231
1---4---0---3-
-2--3---2-1---

Generation = 9, Population = 90.
---42---1211--
-1--032-001-00
-1-23500---2-3
0--1--22--12-2
1--312--231513
-0---0-000----
-2--30-01-01-1
-313-441--2231
0----4---4-1-0
----31--1-3-42
-011-0-011--4-
--1142-23--12-

Generation = 10, Population = 75.
-015--02-322-0
021014-0-1--1-
-2--46---0031-
1-3-23-----32-
2-3----4-426--
-1023-----0-4-
2---4111-3--12
---435-------2
--20---1---2--
230-421-2--2--
112------2----
---2------12-1

Generation = 11, Population = 83.
--2---1----30-
1-212-21--122-
131-57002--423
224---22--14-2
32---23--53-1-
221---0--0125-
--2152-2---1--
2---4----0-2-3
0---0-----0320
-4115-20--334-
-2--402------0
02--4-----23--

*** Life<FredkinCell> 2x16 ***

Generation = 0, Population = 5.
------0-00------
------0--0------

Generation = 1, Population = 9.
-----01-1-0-----
-----010-10-----

Generation = 2, Population = 11.
----0--0-010----
----0-2102-0----

Generation = 3, Population = 13.
---010-11---0---
---01-32--010---

Generation = 4, Population = 15.
--0-211-201-10--
--0--04--21--0--

Generation = 5, Population = 15.
-01-32--31--2-0-
-010---2---1-10-

Generation = 6, Population = 21.
0--0431-421--010
0-21-04--21-02-0

Generation = 7, Population = 13.
10---4--53-0----
1-3-1--2----1-01

Generation = 8, Population = 12.
-1----1-64----10
20----4--2----12

Generation = 9, Population = 15.
-21--42-7-1--0--
3-3--052-31--2--

Generation = 10, Population = 22.
-3-04--1-420211-
-0411-6304-1131-

Generation = 11, Population = 18.
141--4-27--132-0
3--2--74--1-24-2

Generation = 12, Population = 14.
--2-4-2-84-24--1
4---1-8--4-1---3

Generation = 13, Population = 19.
14--5-3-9---5212
-0422-94-5-2--14

*** Life<FredkinCell> 9x17 ***

Generation = 0, Population = 21.
---0-0--0--------
--------0-------0
-----------------
-----------------
0--------0-------
00--0-0-0-0------
-0------0--------
--0---------0-0--
0--------0---0---

Generation = 1, Population = 44.
--0---0010------0
---0-0-010-----0-
--------0-------0
0--------0-------
1---0-0----------
--00----10-0-----
-1--0-00100-0-0--
0--0----00-0-0-0-
-00-----0-0------

Generation = 2, Population = 49.
-0----112-0------
------0---0---0-0
0--0-0--10-------
10--0-0---0-----0
200----00--0-----
0-110-----0---0--
---0--1---1--0---
-0----0-1---0-0-0
-11----010---0-0-

Generation = 3, Population = 77.
0-0--0--3-10--0-0
00-0--1---10-0---
1-0-0-00210---0--
2----0---------0-
31-----1100-0-0-0
10-21000101----0-
01-1-0201020--0-0
01-0-0102-00---0-
0-20---1210---0--

*** Life<FredkinCell> 14x10 ***

Generation = 0, Population = 11.
--0-0-----
--0-------
--0----0--
----------
----------
---0------
----------
---0----0-
----------
----------
---0------
----------
0---------
---0------

Generation = 1, Population = 34.
-01--0----
-0-00--0--
-010--0-0-
--0----0--
---0------
--0-0-----
--------0-
--0-0--0-0
---0----0-
---0------
--0-0-----
0--0------
-0-0------
0-0-0-----

Generation = 2, Population = 35.
0-2---00--
0---1-----
0-2--0---0
--10------
--0----0--
-0-0-0--0-
----------
-0-0-00---
---1------
---1----0-
00---0----
---1------
0-01------
-0-0-0----

Generation = 3, Population = 71.
1--000110-
-0-0--00-0
1-3---0-0-
002100-0-0
--10-00---
0-0---0--0
------0-0-
0--1-110--
-00-000-0-
000200-0-0
110-0-0-0-
-0-200----
-01200----
--01--0---

*** Life<FredkinCell> 18x20 ***

Generation = 0, Population = 7.
--------------------
--------------------
---------0----------
-----0-----------0--
--------------------
0-------------------
--------------------
-----0--------------
--------------------
--------------------
--------------------
--------------------
--------------------
--------------------
--------------------
-------------0------
--------------------
-------------------0

Generation = 2, Population = 24.
---------0----------
-----0-----------0--
-------0---0--------
0--0---0-------0---0
---------0----------
0-0--------------0--
--------------------
0--0---0------------
--------------------
-----0--------------
--------------------
--------------------
--------------------
-------------0------
--------------------
-----------0---0---0
--------------------
-------------0---0--

Generation = 4, Population = 26.
---------0----------
0-------------------
-----1-------0------
-1---0---1---0-----0
--------------------
--0-0---------------
---------0----------
-1---0---0-------0--
--------------------
0-------------------
--------------------
-----0-------0------
--------------------
-------------------0
--------------------
---------0-------0-0
--------------------
-------------0-0-0--

Generation = 6, Population = 65.
-----0-0-0-0-0------
010--1---1---1-----0
---0---1-1-0---0----
1-1-1----------0-0-0
-----1---1---1------
0-0-0-0------0---0-0
-------0---0--------
1-1-1------0---0---0
---------1----------
010------0---0---0--
--------------------
0--0---0---0---0---0
--------------------
-----0---0---0------
--------------------
-------0---0-0-----0
--------------------
---------0-0---0-0--

Generation = 8, Population = 23.
--------------------
2-------------------
-1---------------1--
-1---1---1---2-2-0--
---------1----------
------0-0-----------
--------------------
-1------------------
--------------------
-------------------0
---------1----------
-----0-----------0-0
--------------------
0------------0------
--------------------
-------------------0
--------------------
-----------0-0------

Generation = 10, Population = 64.
-0---------------0--
211--2---1---2-0-1--
---0-----3-----2---0
2-----1-1----2---2-0
-1-----0---0-----1--
----010-000--1-0-0--
---------1----------
---0--0-0----------0
---------2----------
-1---0--------------
-------0---0--------
0--0---0-----0-0-0-0
---------0----------
0-0--0-----0---0-0--
--------------------
0----------0-----0-0
--------------------
---------0-----0---0

Generation = 12, Population = 64.
-2-------2-------2--
4-3-1-1-1-----------
-3---3-------1-----2
-2---------1-----4--
-----2-------2------
0-0-2-----2-1------0
-0-------3-------1--
-----1---2---0-0---0
---------2----------
2-----1-0----0-0-0--
-----1-------1------
---------1---0-0-0--
--------------------
--0-1----1-0-0---0-0
---------0----------
-----0-----0-0-0---0
--------------------
0------0-0---0-0-0-0

Generation = 14, Population = 123.
---0-1-0-2-0-1-0-2--
-2------1-00-----3--
-5---3-1-4-1-1-3---2
---0--1-121-12-2----
---0-2-0-2-1-2-0-2-1
-1--211-11201100----
---0-1-0-5-1-1-1---0
--102-1-1-1-1----1--
-0---1-0-4-0-0---1--
2-1-001-0-00-2------
---0---1-2-0---0----
0-0-0-0111-0-2-0-0--
-----0---0---0------
0-0-1100---0-0-----0
-------0---0--------
0-001----1---------0
---------1----------
--0--------0-0---0--

Generation = 16, Population = 22.
--------------------
-------------------1
-----3---------5----
-4-----1-2----------
--------------------
-------------10-1---
--------------------
-----1---2---------1
--------------------
2-------------------
--------------------
-----1-----------0--
---------2----------
-----3--------------
--------------------
00---------1--------
--------------------
---1-------------0--

Generation = 18, Population = 75.
-----1---------0----
-3-----0-2-------4-1
---0---2-----2---2--
---1-2-1-2-1-30-0--1
-----3---------0----
-1---1-0---02-211-00
--------------------
1--1-------1-00-02-1
--------------------
2-1------1-------0-0
---------3----------
0--0-1-2-------1---0
-------0---0--------
00-0-3-0---1-----0--
---------1----------
2-2--0---2---0---0--
--------------------
0--1-0-----0---0-0-0

Generation = 20, Population = 63.
-----1---------0----
-------------30216-1
-7-------5-3-------2
-4-3-4---2-1-3-----1
--------------------
1--------13-4----122
-----3---------3----
-------0-----2-0----
---------5----------
--1-11-------30-1---
--------------------
0----1-----2-3------
-----1-------0------
22-0-----3-------0--
--------------------
-1213--0-------0----
---------3----------
01---0-0---0-0-----0

Generation = 22, Population = 123.
-2-0-1-0-2-1-2-2-4-1
-4-0-3---3--1-0-1-03
---2-4-2-7-5-3-6-4-2
36---4----2-2-2-0413
-2---4---2-3---1---1
1200-3--335-4-3-33-4
---1---1-7---3---2--
1-2-3-----112-122-01
-----3-1---1---1----
--10333-----1-2-1-0-
-----1---4---1------
-1--13-3---2--1100--
---1---0---2---0----
----3--------2-----0
-----0---3---0------
332-5110---1-------0
-------0---1--------
---11--0---------0--

Generation = 24, Population = 50.
--------------------
5----------2--0-1---
-8-----2-----3---6--
-------3-------2----
-----4---4-----1----
------3-5-------5-2-
--------------------
11---------------4--
--------------------
---0--5-0--------0-1
-----1---------2----
---0---5-----4-3-2--
-1---------------1--
3----------3--1-0---
--------------------
---1-31-1-----------
---------3----------
1--3-1---0-1---0-0--

Generation = 26, Population = 117.
-3-----0-----2---4--
5-3----2-3--24031-1-
---3-------6---7---2
4----52-34-2-43--61-
-2-1---1---3--------
23--3-305-6---32532-
-----3---8-----4----
3-3------------3442-
-----4---------2----
2--043500-1--4---0--
-0-0---3-----2------
02-0--2-22---42-0---
---2-2-------------0
3-0--30103--1-10000-
-0-------3-------0--
-3--6-30130---0000--
-------0---3--------
-313-11-1----------0

Generation = 28, Population = 139.
-3---2-2-4---4-3-4--
5-3-1-241-224-05----
-8-3-5---8-8-3---7-2
46-3-------------8-4
-4---5---5-5-3-----1
4-103-5-7-61----5346
-1---3-2-----3-4-3--
-23231-----------4-3
-0---6---5-----4-2--
2-3-4-522-122631-011
-2-------5-0-------0
22---32644---4------
-2---4---2---2-----0
3-0-430103141-----20
-----2---------0----
554-64----2201------
-0---1---5---0---1--
25152-3-12----000---

Generation = 30, Population = 142.
---1-2-4-4-2-4-5-4--
55-1-3--------2-3--5
-+---5-4-8-+-3-9---4
681--6-4----2-4-2-24
---1---2---7-3---2--
433-5----48-5243754-
-----5-2-8-----4----
4432332-----332-54--
-----8-2-5----------
2-30457242-4-63--0-1
---0---4-7-2---4----
4-1-3-2-4-1--64--3--
-4---4---2-4-----2--
--006301051--32-02-0
---0---2-----2-----1
-7-1865-14---1--0-00
-----3---------1---0
-7----31-2-----0-00-

Generation = 32, Population = 24.
--------------------
-----------------7--
---------8---------4
---4---4-----5-4----
--------------------
--------8-+---------
--------------------
---2-----------5----
---------7----------
-----7-------8---0--
--------------------
4------------------0
--------------------
-----5-------------2
--------------------
---1---------3---0--
--------------------
---------2-1--------

Generation = 34, Population = 47.
---------4---------2
---2---5-----5-----7
-------6---+-----9-4
-9------5622-5-4----
---------5---------1
------528-+-63------
---------9----------
-4------1-2---------
-------3---2--------
2------2---5---1----
---------8----------
4-1----------7------
--------------------
3------2-----3------
--------------------
-7-------5----------
--------------------
---5---2---------1--

Generation = 36, Population = 57.
---------4---------4
--------3-3--5---8-7
-----5-------3-+-9--
-------4-8-----4-+-4
---------7----------
----557-----855-----
---------9---------0
6--2-------2-3-5----
-----8-------1------
-2---7--5-3--8---0--
--------------------
--1-3--------7------
---------3----------
-4---5-----4-3-0----
--------------------
7------1---2-3---0--
--------------------
---5---2-------1-1-0

Generation = 38, Population = 121.
-----3-4-4-2-5-5----
------3734346--6---9
---4---8---+-5---9--
----1-446+322656-+-4
-----6-4-9-7-5-3-4-2
5-4-7-9-94+-+57576-7
-----7-2-9-3-3---3-0
6-4-443-13324-35----
---1---4-7-4---6---0
3-515-845-3-3--1---1
-----2---8---2------
4-1-3-2-4-1------4--
-------1---5--------
4-2-7----7-----0----
---------3----------
7851---1---------0--
--------------------
37-5-----2-1-------0

Generation = 40, Population = 61.
---------6----------
-----3--363--7-8-+--
-+---------+-7---+--
7----8-----2-6---+--
---------9---------2
5-4--5----------7857
--------------------
-------0---2-5------
-1---------------2--
-2---9-----7-9-3-0-3
---------8---------2
---0--2746-----4----
--------------------
-4-1----1-35-3---2--
--------------------
---------6-2--------
---------7----------
59-5-2-------0------

Generation = 42, Population = 102.
-3-----5-8---6---5--
6--2-35-5-548------9
---4-----9-+-7------
---4---46-44---63-4-
-5-----5-----6-----4
5-4185--------779-5-
-2-------9-------5-2
654--5----------6-3-
---2-----8-----7----
---2--+56----9-3----
-4-----6---4-------4
-3-04447-6-3-7-4-4-1
---------4---------1
-4---5-3-85-23-0---2
---------5----------
8----7-1383--3---0--
-------1---4--------
--15---2-3---0-1----
