21

49 76
19
34 23
45 40
15 5
3 35
21 52
20 36
24 33
29 71
5 10
40 5
45 2
35 10
41 25
36 50
21 37
6 26
28 10
30 48
17 47
144 169

91 20
26
0 5
69 18
77 19
45 0
83 10
11 16
90 5
82 0
13 11
1 8
72 12
34 3
36 19
6 9
22 9
60 6
62 1
62 5
46 18
68 11
67 13
48 3
42 12
40 13
8 19
41 15
2 65

98 41
31
29 32
43 25
94 27
3 14
6 2
20 27
43 20
78 31
71 12
68 21
88 39
71 11
86 11
82 20
38 23
92 34
12 5
36 14
17 29
48 22
76 0
39 18
96 39
10 14
69 13
92 2
29 8
8 24
37 8
76 37
52 11
128 141

59 8
21
45 3
37 1
26 7
12 6
35 0
36 7
17 0
18 4
7 5
29 1
2 2
0 5
14 5
35 1
49 3
22 3
31 0
19 1
36 2
34 6
22 7
484 7

22 76
19
18 22
16 4
13 32
14 61
8 33
19 33
9 37
9 53
21 54
18 65
21 5
20 30
8 70
13 55
14 72
20 33
11 74
18 35
15 53
9 51

38 5
43
30 1
34 2
3 2
19 2
19 4
13 3
3 4
19 1
0 2
25 3
16 0
17 3
6 2
28 4
26 1
15 4
36 0
15 4
28 2
35 1
2 4
24 4
29 1
17 4
17 1
21 1
8 1
23 1
4 4
30 3
25 3
16 2
7 1
9 2
0 4
22 4
11 0
28 3
23 1
20 1
37 2
8 0
14 0
424 163

15 62
27
7 28
10 2
11 36
14 12
4 52
11 0
13 58
5 33
11 16
2 20
9 41
2 16
2 2
2 52
8 55
0 5
10 10
3 48
8 45
10 39
4 17
6 5
4 38
12 23
5 37
3 52
3 9
71 79

80 32
28
73 11
41 8
14 9
64 12
26 1
71 22
42 7
36 28
57 25
24 1
66 17
52 31
40 24
54 10
58 20
21 0
30 10
79 20
63 21
29 30
30 25
47 14
35 13
57 28
78 24
28 19
44 13
65 23
334 156

14 43
23
12 0
6 20
11 3
7 14
3 31
4 4
9 13
1 0
5 4
13 28
2 28
6 14
6 6
7 29
13 22
5 22
10 22
11 25
8 37
6 15
7 7
1 10
8 20
278 185

70 50
4
20 14
19 0
28 33
21 24
162 88

69 46
10
62 44
20 44
27 39
61 16
36 29
12 26
62 0
5 16
14 32
15 27
302 114

65 64
23
8 49
33 47
57 8
22 29
53 58
56 15
58 7
23 21
14 63
51 56
39 4
21 3
0 49
64 50
37 48
21 40
16 1
22 58
5 59
54 58
53 22
1 54
12 4
130 121

53 97
43
17 91
52 51
15 53
27 44
47 35
43 75
36 44
22 9
52 34
24 62
29 79
1 93
17 48
5 82
44 65
6 54
10 12
1 2
35 54
0 23
16 4
41 89
6 82
46 64
34 10
37 22
39 69
45 90
18 25
6 88
6 87
18 89
16 73
6 94
27 63
17 45
5 45
34 2
12 11
8 80
45 38
21 35
31 77
287 159

97 88
34
32 48
91 38
4 64
89 29
26 45
36 20
11 85
22 47
89 66
62 26
29 18
95 49
57 14
39 30
92 31
39 65
13 74
78 35
47 24
61 23
13 18
43 1
96 37
78 80
54 35
38 12
45 7
47 1
54 32
4 6
73 42
81 58
89 79
78 9
297 161

24 58
40
22 47
8 21
5 31
2 41
22 26
0 16
15 28
2 27
2 30
22 22
8 4
13 3
8 22
18 55
12 3
5 35
14 25
19 39
1 10
0 25
0 20
16 11
6 21
23 36
18 3
3 11
22 48
7 36
20 7
20 19
8 50
23 8
23 40
6 18
5 38
12 34
18 34
9 57
0 54
13 55
85 124

97 64
1
8 52
463 36

60 89
11
18 84
55 76
47 70
23 17
32 60
21 28
54 8
41 20
44 32
16 31
3 8
264 143

81 28
15
69 4
13 19
70 0
58 21
40 4
62 11
56 8
23 5
9 19
1 10
43 17
35 1
50 18
74 11
70 7
21 106

22 78
20
21 28
12 20
20 68
17 63
19 24
21 47
1 45
15 17
8 65
12 54
4 38
5 55
12 44
20 70
5 22
14 25
8 32
4 70
5 46
2 27
14 68

92 36
1
89 25
100 44

43 48
13
9 18
14 24
23 12
1 29
1 10
37 23
29 47
38 32
42 36
0 45
39 32
1 21
26 35
467 13
